False annotations_table.indexed
True annotations_table.autoindex
False calls_table.indexed
True calls_table.autoindex
False samples_table.indexed
True samples_table.autoindex
False variants_snp_table.indexed
True variants_snp_table.autoindex
False variants_nosnp_table.indexed
True variants_nosnp_table.autoindex
Abfragezeit:  3.353590488433838
[(459311, 172923, 0, -999999999, b'G', b'upstream_gene_variant', b'', b'', b'', b'', b'', b'', b'MODIFIER', b'PQBP1', b'PQBP1', b'transcript', b'NM_001032381.1', b'Coding', -999999999999999999, -999999999999999999, b'c.-122A>G', b'', -999999999999999999, -999999999999999999, -999999999999999999, -999999999999999999, -999999999999999999, -999999999999999999, 4753, b''), (459312, 172923, 0, -999999999, b'G', b'upstream_gene_variant', b'', b'', b'', b'', b'', b'', b'MODIFIER', b'PQBP1', b'PQBP1', b'transcript', b'NM_001032382.1', b'Coding', -999999999999999999, -999999999999999999, b'c.-190A>G', b'', -999999999999999999, -999999999999999999, -999999999999999999, -999999999999999999, -999999999999999999, -999999999999999999, 4753, b''), (459313, 172923, 0, -999999999, b'G', b'upstream_gene_variant', b'', b'', b'', b'', b'', b'', b'MODIFIER', b'PQBP1', b'PQBP1', b'transcript', b'NM_001032383.1', b'Coding', -999999999999999999, -999999999999999999, b'c.-201A>G', b'', -999999999999999999, -999999999999999999, -999999999999999999, -999999999999999999, -999999999999999999, -999999999999999999, 4753, b''), (459314, 172923, 0, -999999999, b'G', b'upstream_gene_variant', b'', b'', b'', b'', b'', b'', b'MODIFIER', b'PQBP1', b'PQBP1', b'transcript', b'NM_144495.2', b'Coding', -999999999999999999, -999999999999999999, b'c.-190A>G', b'', -999999999999999999, -999999999999999999, -999999999999999999, -999999999999999999, -999999999999999999, -999999999999999999, 4753, b''), (459315, 172923, 0, -999999999, b'G', b'upstream_gene_variant', b'', b'', b'', b'', b'', b'', b'MODIFIER', b'PQBP1', b'PQBP1', b'transcript', b'NM_001167989.1', b'Coding', -999999999999999999, -999999999999999999, b'c.-122A>G', b'', -999999999999999999, -999999999999999999, -999999999999999999, -999999999999999999, -999999999999999999, -999999999999999999, 4753, b''), (459316, 172923, 0, -999999999, b'G', b'upstream_gene_variant', b'', b'', b'', b'', b'', b'', b'MODIFIER', b'PQBP1', b'PQBP1', b'transcript', b'NM_001167990.1', b'Coding', -999999999999999999, -999999999999999999, b'c.-104A>G', b'', -999999999999999999, -999999999999999999, -999999999999999999, -999999999999999999, -999999999999999999, -999999999999999999, 4771, b''), (459322, 172924, 0, -999999999, b'G', b'upstream_gene_variant', b'', b'', b'', b'', b'', b'', b'MODIFIER', b'PQBP1', b'PQBP1', b'transcript', b'NM_001032381.1', b'Coding', -999999999999999999, -999999999999999999, b'c.-122A>G', b'', -999999999999999999, -999999999999999999, -999999999999999999, -999999999999999999, -999999999999999999, -999999999999999999, 3724, b''), (459323, 172924, 0, -999999999, b'G', b'upstream_gene_variant', b'', b'', b'', b'', b'', b'', b'MODIFIER', b'PQBP1', b'PQBP1', b'transcript', b'NM_001032382.1', b'Coding', -999999999999999999, -999999999999999999, b'c.-190A>G', b'', -999999999999999999, -999999999999999999, -999999999999999999, -999999999999999999, -999999999999999999, -999999999999999999, 3724, b''), (459324, 172924, 0, -999999999, b'G', b'upstream_gene_variant', b'', b'', b'', b'', b'', b'', b'MODIFIER', b'PQBP1', b'PQBP1', b'transcript', b'NM_001032383.1', b'Coding', -999999999999999999, -999999999999999999, b'c.-201A>G', b'', -999999999999999999, -999999999999999999, -999999999999999999, -999999999999999999, -999999999999999999, -999999999999999999, 3724, b''), (459325, 172924, 0, -999999999, b'G', b'upstream_gene_variant', b'', b'', b'', b'', b'', b'', b'MODIFIER', b'PQBP1', b'PQBP1', b'transcript', b'NM_144495.2', b'Coding', -999999999999999999, -999999999999999999, b'c.-190A>G', b'', -999999999999999999, -999999999999999999, -999999999999999999, -999999999999999999, -999999999999999999, -999999999999999999, 3724, b'')]
Anzahl Annotationen:  10
Abfragezeit:  1.026352882385254
[(118393, 45564, 0, -999999999, b'T', b'intron_variant', b'', b'', b'', b'', b'', b'', b'MODIFIER', b'PDLIM5', b'PDLIM5', b'transcript', b'NM_001256426.1', b'Coding', 5, 16, b'c.384-2467G>T', b'', -999999999999999999, -999999999999999999, -999999999999999999, -999999999999999999, -999999999999999999, -999999999999999999, -999999999999999999, b''), (118394, 45564, 0, -999999999, b'T', b'intron_variant', b'', b'', b'', b'', b'', b'', b'MODIFIER', b'PDLIM5', b'PDLIM5', b'transcript', b'NM_001011515.2', b'Coding', 5, 8, b'c.384-2467G>T', b'', -999999999999999999, -999999999999999999, -999999999999999999, -999999999999999999, -999999999999999999, -999999999999999999, -999999999999999999, b''), (118395, 45564, 0, -999999999, b'T', b'intron_variant', b'', b'', b'', b'', b'', b'', b'MODIFIER', b'PDLIM5', b'PDLIM5', b'transcript', b'NM_001011516.2', b'Coding', 5, 9, b'c.309-198G>T', b'', -999999999999999999, -999999999999999999, -999999999999999999, -999999999999999999, -999999999999999999, -999999999999999999, -999999999999999999, b''), (118396, 45564, 0, -999999999, b'T', b'intron_variant', b'', b'', b'', b'', b'', b'', b'MODIFIER', b'PDLIM5', b'PDLIM5', b'transcript', b'NM_001011513.3', b'Coding', 5, 12, b'c.384-3046G>T', b'', -999999999999999999, -999999999999999999, -999999999999999999, -999999999999999999, -999999999999999999, -999999999999999999, -999999999999999999, b''), (118397, 45564, 0, -999999999, b'T', b'intron_variant', b'', b'', b'', b'', b'', b'', b'MODIFIER', b'PDLIM5', b'PDLIM5', b'transcript', b'NM_001256425.1', b'Coding', 4, 11, b'c.-265-3046G>T', b'', -999999999999999999, -999999999999999999, -999999999999999999, -999999999999999999, -999999999999999999, -999999999999999999, -999999999999999999, b''), (118398, 45564, 0, -999999999, b'T', b'intron_variant', b'', b'', b'', b'', b'', b'', b'MODIFIER', b'PDLIM5', b'PDLIM5', b'transcript', b'NM_001256427.1', b'Coding', 5, 14, b'c.384-2467G>T', b'', -999999999999999999, -999999999999999999, -999999999999999999, -999999999999999999, -999999999999999999, -999999999999999999, -999999999999999999, b''), (118399, 45564, 0, -999999999, b'T', b'intron_variant', b'', b'', b'', b'', b'', b'', b'MODIFIER', b'PDLIM5', b'PDLIM5', b'transcript', b'NM_001256428.1', b'Coding', 4, 11, b'c.345-3046G>T', b'', -999999999999999999, -999999999999999999, -999999999999999999, -999999999999999999, -999999999999999999, -999999999999999999, -999999999999999999, b''), (118400, 45564, 0, -999999999, b'T', b'intron_variant', b'', b'', b'', b'', b'', b'', b'MODIFIER', b'PDLIM5', b'PDLIM5', b'transcript', b'NM_006457.4', b'Coding', 5, 12, b'c.711-3046G>T', b'', -999999999999999999, -999999999999999999, -999999999999999999, -999999999999999999, -999999999999999999, -999999999999999999, -999999999999999999, b''), (118401, 45565, 0, -999999999, b'C', b'intron_variant', b'', b'', b'', b'', b'', b'', b'MODIFIER', b'PDLIM5', b'PDLIM5', b'transcript', b'NM_001256426.1', b'Coding', 5, 16, b'c.384-2235T>C', b'', -999999999999999999, -999999999999999999, -999999999999999999, -999999999999999999, -999999999999999999, -999999999999999999, -999999999999999999, b''), (118402, 45565, 0, -999999999, b'C', b'intron_variant', b'', b'', b'', b'', b'', b'', b'MODIFIER', b'PDLIM5', b'PDLIM5', b'transcript', b'NM_001011515.2', b'Coding', 5, 8, b'c.384-2235T>C', b'', -999999999999999999, -999999999999999999, -999999999999999999, -999999999999999999, -999999999999999999, -999999999999999999, -999999999999999999, b'')]
Anzahl Annotationen:  10
Abfragezeit:  1.0227303504943848
[(391093, 148094, 0, -999999999, b'A', b'downstream_gene_variant', b'', b'', b'', b'', b'', b'', b'MODIFIER', b'KANK2', b'KANK2', b'transcript', b'NM_015493.6', b'Coding', -999999999999999999, -999999999999999999, b'c.*2659C>T', b'', -999999999999999999, -999999999999999999, -999999999999999999, -999999999999999999, -999999999999999999, -999999999999999999, 878, b''), (391094, 148094, 0, -999999999, b'A', b'downstream_gene_variant', b'', b'', b'', b'', b'', b'', b'MODIFIER', b'KANK2', b'KANK2', b'transcript', b'NM_001136191.2', b'Coding', -999999999999999999, -999999999999999999, b'c.*2917C>T', b'', -999999999999999999, -999999999999999999, -999999999999999999, -999999999999999999, -999999999999999999, -999999999999999999, 878, b''), (391096, 148095, 0, -999999999, b'T', b'3_prime_UTR_variant', b'', b'', b'', b'', b'', b'', b'MODIFIER', b'KANK2', b'KANK2', b'transcript', b'NM_015493.6', b'Coding', 11, 11, b'c.*1300C>A', b'', -999999999999999999, -999999999999999999, -999999999999999999, -999999999999999999, -999999999999999999, -999999999999999999, 1300, b''), (391097, 148095, 0, -999999999, b'T', b'3_prime_UTR_variant', b'', b'', b'', b'', b'', b'', b'MODIFIER', b'KANK2', b'KANK2', b'transcript', b'NM_001136191.2', b'Coding', 13, 13, b'c.*1300C>A', b'', -999999999999999999, -999999999999999999, -999999999999999999, -999999999999999999, -999999999999999999, -999999999999999999, 1300, b''), (391098, 148096, 0, -999999999, b'T', b'3_prime_UTR_variant', b'', b'', b'', b'', b'', b'', b'MODIFIER', b'KANK2', b'KANK2', b'transcript', b'NM_015493.6', b'Coding', 11, 11, b'c.*160G>A', b'', -999999999999999999, -999999999999999999, -999999999999999999, -999999999999999999, -999999999999999999, -999999999999999999, 160, b''), (391099, 148096, 0, -999999999, b'T', b'3_prime_UTR_variant', b'', b'', b'', b'', b'', b'', b'MODIFIER', b'KANK2', b'KANK2', b'transcript', b'NM_001136191.2', b'Coding', 13, 13, b'c.*160G>A', b'', -999999999999999999, -999999999999999999, -999999999999999999, -999999999999999999, -999999999999999999, -999999999999999999, 160, b''), (391100, 148097, 0, -999999999, b'A', b'3_prime_UTR_variant', b'', b'', b'', b'', b'', b'', b'MODIFIER', b'KANK2', b'KANK2', b'transcript', b'NM_015493.6', b'Coding', 11, 11, b'c.*2C>T', b'', -999999999999999999, -999999999999999999, -999999999999999999, -999999999999999999, -999999999999999999, -999999999999999999, 2, b''), (391101, 148097, 0, -999999999, b'A', b'3_prime_UTR_variant', b'', b'', b'', b'', b'', b'', b'MODIFIER', b'KANK2', b'KANK2', b'transcript', b'NM_001136191.2', b'Coding', 13, 13, b'c.*2C>T', b'', -999999999999999999, -999999999999999999, -999999999999999999, -999999999999999999, -999999999999999999, -999999999999999999, 2, b''), (391102, 148098, 0, -999999999, b'C', b'intron_variant', b'', b'', b'', b'', b'', b'', b'MODIFIER', b'KANK2', b'KANK2', b'transcript', b'NM_015493.6', b'Coding', 10, 10, b'c.2526+370C>G', b'', -999999999999999999, -999999999999999999, -999999999999999999, -999999999999999999, -999999999999999999, -999999999999999999, -999999999999999999, b''), (391103, 148098, 0, -999999999, b'C', b'intron_variant', b'', b'', b'', b'', b'', b'', b'MODIFIER', b'KANK2', b'KANK2', b'transcript', b'NM_001136191.2', b'Coding', 12, 12, b'c.2502+370C>G', b'', -999999999999999999, -999999999999999999, -999999999999999999, -999999999999999999, -999999999999999999, -999999999999999999, -999999999999999999, b'')]
Anzahl Annotationen:  10
Abfragezeit:  1.019906997680664
[(391544, 148231, 0, -999999999, b'C', b'upstream_gene_variant', b'', b'', b'', b'', b'', b'', b'MODIFIER', b'STK11', b'STK11', b'transcript', b'NM_000455.4', b'Coding', -999999999999999999, -999999999999999999, b'c.-1116T>C', b'', -999999999999999999, -999999999999999999, -999999999999999999, -999999999999999999, -999999999999999999, -999999999999999999, 1581, b''), (391548, 148233, 0, -999999999, b'T', b'intron_variant', b'', b'', b'', b'', b'', b'', b'MODIFIER', b'STK11', b'STK11', b'transcript', b'NM_000455.4', b'Coding', 1, 9, b'c.290+36G>T', b'', -999999999999999999, -999999999999999999, -999999999999999999, -999999999999999999, -999999999999999999, -999999999999999999, -999999999999999999, b''), (391553, 148238, 0, -999999999, b'A', b'intron_variant', b'', b'', b'', b'', b'', b'', b'MODIFIER', b'STK11', b'STK11', b'transcript', b'NM_000455.4', b'Coding', 2, 9, b'c.375-194G>A', b'', -999999999999999999, -999999999999999999, -999999999999999999, -999999999999999999, -999999999999999999, -999999999999999999, -999999999999999999, b''), (391554, 148239, 0, -999999999, b'A', b'intron_variant', b'', b'', b'', b'', b'', b'', b'MODIFIER', b'STK11', b'STK11', b'transcript', b'NM_000455.4', b'Coding', 2, 9, b'c.375-49G>A', b'', -999999999999999999, -999999999999999999, -999999999999999999, -999999999999999999, -999999999999999999, -999999999999999999, -999999999999999999, b''), (391555, 148240, 0, -999999999, b'T', b'intron_variant', b'', b'', b'', b'', b'', b'', b'MODIFIER', b'STK11', b'STK11', b'transcript', b'NM_000455.4', b'Coding', 3, 9, b'c.464+141G>T', b'', -999999999999999999, -999999999999999999, -999999999999999999, -999999999999999999, -999999999999999999, -999999999999999999, -999999999999999999, b''), (391556, 148241, 0, -999999999, b'C', b'intron_variant', b'', b'', b'', b'', b'', b'', b'MODIFIER', b'STK11', b'STK11', b'transcript', b'NM_000455.4', b'Coding', 3, 9, b'c.465-51T>C', b'', -999999999999999999, -999999999999999999, -999999999999999999, -999999999999999999, -999999999999999999, -999999999999999999, -999999999999999999, b''), (391557, 148242, 0, -999999999, b'T', b'intron_variant', b'', b'', b'', b'', b'', b'', b'MODIFIER', b'STK11', b'STK11', b'transcript', b'NM_000455.4', b'Coding', 6, 9, b'c.862+145C>T', b'', -999999999999999999, -999999999999999999, -999999999999999999, -999999999999999999, -999999999999999999, -999999999999999999, -999999999999999999, b''), (391558, 148243, 0, -999999999, b'T', b'intron_variant', b'', b'', b'', b'', b'', b'', b'MODIFIER', b'STK11', b'STK11', b'transcript', b'NM_000455.4', b'Coding', 6, 9, b'c.862+206C>T', b'', -999999999999999999, -999999999999999999, -999999999999999999, -999999999999999999, -999999999999999999, -999999999999999999, -999999999999999999, b''), (391559, 148244, 0, -999999999, b'C', b'splice_region_variant', b'intron_variant', b'', b'', b'', b'', b'', b'LOW', b'STK11', b'STK11', b'transcript', b'NM_000455.4', b'Coding', 7, 9, b'c.920+7G>C', b'', -999999999999999999, -999999999999999999, -999999999999999999, -999999999999999999, -999999999999999999, -999999999999999999, -999999999999999999, b''), (391561, 148246, 0, -999999999, b'C', b'intron_variant', b'', b'', b'', b'', b'', b'', b'MODIFIER', b'STK11', b'STK11', b'transcript', b'NM_000455.4', b'Coding', 7, 9, b'c.921-447G>C', b'', -999999999999999999, -999999999999999999, -999999999999999999, -999999999999999999, -999999999999999999, -999999999999999999, -999999999999999999, b'')]
Anzahl Annotationen:  10
Abfragezeit:  1.02396559715271
[(390943, 148068, 0, -999999999, b'T', b'synonymous_variant', b'', b'', b'', b'', b'', b'', b'LOW', b'LDLR', b'LDLR', b'transcript', b'NM_000527.4', b'Coding', 2, 18, b'c.81C>T', b'p.Cys27Cys', 268, 5283, 2583, 81, 27, 860, -999999999999999999, b''), (390944, 148068, 0, -999999999, b'T', b'synonymous_variant', b'', b'', b'', b'', b'', b'', b'LOW', b'LDLR', b'LDLR', b'transcript', b'NM_001195798.1', b'Coding', 2, 18, b'c.81C>T', b'p.Cys27Cys', 268, 5277, 2577, 81, 27, 858, -999999999999999999, b''), (390945, 148068, 0, -999999999, b'T', b'synonymous_variant', b'', b'', b'', b'', b'', b'', b'LOW', b'LDLR', b'LDLR', b'transcript', b'NM_001195799.1', b'Coding', 2, 17, b'c.81C>T', b'p.Cys27Cys', 268, 5160, 2460, 81, 27, 819, -999999999999999999, b''), (390946, 148068, 0, -999999999, b'T', b'synonymous_variant', b'', b'', b'', b'', b'', b'', b'LOW', b'LDLR', b'LDLR', b'transcript', b'NM_001195800.1', b'Coding', 2, 16, b'c.81C>T', b'p.Cys27Cys', 268, 4779, 2079, 81, 27, 692, -999999999999999999, b''), (390947, 148068, 0, -999999999, b'T', b'synonymous_variant', b'', b'', b'', b'', b'', b'', b'LOW', b'LDLR', b'LDLR', b'transcript', b'NM_001195803.1', b'Coding', 2, 16, b'c.81C>T', b'p.Cys27Cys', 268, 4749, 2049, 81, 27, 682, -999999999999999999, b''), (390949, 148069, 0, -999999999, b'G', b'intron_variant', b'', b'', b'', b'', b'', b'', b'MODIFIER', b'LDLR', b'LDLR', b'transcript', b'NM_000527.4', b'Coding', 6, 17, b'c.941-148A>G', b'', -999999999999999999, -999999999999999999, -999999999999999999, -999999999999999999, -999999999999999999, -999999999999999999, -999999999999999999, b''), (390950, 148069, 0, -999999999, b'G', b'intron_variant', b'', b'', b'', b'', b'', b'', b'MODIFIER', b'LDLR', b'LDLR', b'transcript', b'NM_001195798.1', b'Coding', 6, 17, b'c.941-148A>G', b'', -999999999999999999, -999999999999999999, -999999999999999999, -999999999999999999, -999999999999999999, -999999999999999999, -999999999999999999, b''), (390951, 148069, 0, -999999999, b'G', b'intron_variant', b'', b'', b'', b'', b'', b'', b'MODIFIER', b'LDLR', b'LDLR', b'transcript', b'NM_001195799.1', b'Coding', 5, 16, b'c.818-148A>G', b'', -999999999999999999, -999999999999999999, -999999999999999999, -999999999999999999, -999999999999999999, -999999999999999999, -999999999999999999, b''), (390952, 148069, 0, -999999999, b'G', b'intron_variant', b'', b'', b'', b'', b'', b'', b'MODIFIER', b'LDLR', b'LDLR', b'transcript', b'NM_001195800.1', b'Coding', 4, 15, b'c.437-148A>G', b'', -999999999999999999, -999999999999999999, -999999999999999999, -999999999999999999, -999999999999999999, -999999999999999999, -999999999999999999, b''), (390953, 148069, 0, -999999999, b'G', b'intron_variant', b'', b'', b'', b'', b'', b'', b'MODIFIER', b'LDLR', b'LDLR', b'transcript', b'NM_001195803.1', b'Coding', 5, 15, b'c.560-148A>G', b'', -999999999999999999, -999999999999999999, -999999999999999999, -999999999999999999, -999999999999999999, -999999999999999999, -999999999999999999, b'')]
Anzahl Annotationen:  10
Abfragezeit:  1.0171887874603271
[(391514, 148214, 0, -999999999, b'T', b'intron_variant', b'', b'', b'', b'', b'', b'', b'MODIFIER', b'ZNF823', b'ZNF823', b'transcript', b'NM_001080493.3', b'Coding', 3, 3, b'c.192-138G>A', b'', -999999999999999999, -999999999999999999, -999999999999999999, -999999999999999999, -999999999999999999, -999999999999999999, -999999999999999999, b''), (391515, 148214, 0, -999999999, b'T', b'intron_variant', b'', b'', b'', b'', b'', b'', b'MODIFIER', b'ZNF823', b'ZNF823', b'transcript', b'NM_001297610.1', b'Coding', 2, 2, b'c.-355-138G>A', b'', -999999999999999999, -999999999999999999, -999999999999999999, -999999999999999999, -999999999999999999, -999999999999999999, -999999999999999999, b''), (391516, 148214, 0, -999999999, b'T', b'intron_variant', b'', b'', b'', b'', b'', b'', b'MODIFIER', b'ZNF823', b'ZNF823', b'transcript', b'NM_017507.1', b'Coding', 2, 2, b'c.60-138G>A', b'', -999999999999999999, -999999999999999999, -999999999999999999, -999999999999999999, -999999999999999999, -999999999999999999, -999999999999999999, b''), (391517, 148215, 0, -999999999, b'C', b'intron_variant', b'', b'', b'', b'', b'', b'', b'MODIFIER', b'ZNF823', b'ZNF823', b'transcript', b'NM_001080493.3', b'Coding', 1, 3, b'c.4-6448A>G', b'', -999999999999999999, -999999999999999999, -999999999999999999, -999999999999999999, -999999999999999999, -999999999999999999, -999999999999999999, b''), (391518, 148215, 0, -999999999, b'C', b'intron_variant', b'', b'', b'', b'', b'', b'', b'MODIFIER', b'ZNF823', b'ZNF823', b'transcript', b'NM_001297610.1', b'Coding', 1, 2, b'c.-482-6448A>G', b'', -999999999999999999, -999999999999999999, -999999999999999999, -999999999999999999, -999999999999999999, -999999999999999999, -999999999999999999, b''), (391519, 148215, 0, -999999999, b'C', b'intron_variant', b'', b'', b'', b'', b'', b'', b'MODIFIER', b'ZNF823', b'ZNF823', b'transcript', b'NM_017507.1', b'Coding', 1, 2, b'c.-3+7042A>G', b'', -999999999999999999, -999999999999999999, -999999999999999999, -999999999999999999, -999999999999999999, -999999999999999999, -999999999999999999, b''), (391520, 148216, 0, -999999999, b'A', b'upstream_gene_variant', b'', b'', b'', b'', b'', b'', b'MODIFIER', b'ZNF823', b'ZNF823', b'transcript', b'NM_001080493.3', b'Coding', -999999999999999999, -999999999999999999, b'c.-191G>T', b'', -999999999999999999, -999999999999999999, -999999999999999999, -999999999999999999, -999999999999999999, -999999999999999999, 17, b''), (391521, 148216, 0, -999999999, b'A', b'upstream_gene_variant', b'', b'', b'', b'', b'', b'', b'MODIFIER', b'ZNF823', b'ZNF823', b'transcript', b'NM_001297610.1', b'Coding', -999999999999999999, -999999999999999999, b'c.-676G>T', b'', -999999999999999999, -999999999999999999, -999999999999999999, -999999999999999999, -999999999999999999, -999999999999999999, 17, b''), (391522, 148216, 0, -999999999, b'A', b'upstream_gene_variant', b'', b'', b'', b'', b'', b'', b'MODIFIER', b'ZNF823', b'ZNF823', b'transcript', b'NM_017507.1', b'Coding', -999999999999999999, -999999999999999999, b'c.-196G>T', b'', -999999999999999999, -999999999999999999, -999999999999999999, -999999999999999999, -999999999999999999, -999999999999999999, 17, b''), (391524, 148217, 0, -999999999, b'G', b'upstream_gene_variant', b'', b'', b'', b'', b'', b'', b'MODIFIER', b'ZNF823', b'ZNF823', b'transcript', b'NM_001080493.3', b'Coding', -999999999999999999, -999999999999999999, b'c.-191A>C', b'', -999999999999999999, -999999999999999999, -999999999999999999, -999999999999999999, -999999999999999999, -999999999999999999, 29, b'')]
Anzahl Annotationen:  10
Abfragezeit:  1.0163207054138184
[(391642, 148291, 0, -999999999, b'G', b'intron_variant', b'', b'', b'', b'', b'', b'', b'MODIFIER', b'MIDN', b'MIDN', b'transcript', b'NM_177401.4', b'Coding', 3, 7, b'c.322-57A>G', b'', -999999999999999999, -999999999999999999, -999999999999999999, -999999999999999999, -999999999999999999, -999999999999999999, -999999999999999999, b''), (391646, 148295, 0, -999999999, b'A', b'intron_variant', b'', b'', b'', b'', b'', b'', b'MODIFIER', b'MIDN', b'MIDN', b'transcript', b'NM_177401.4', b'Coding', 4, 7, b'c.385-44G>A', b'', -999999999999999999, -999999999999999999, -999999999999999999, -999999999999999999, -999999999999999999, -999999999999999999, -999999999999999999, b''), (391679, 148325, 0, -999999999, b'T', b'intron_variant', b'', b'', b'', b'', b'', b'', b'MODIFIER', b'MIDN', b'MIDN', b'transcript', b'NM_177401.4', b'Coding', 6, 7, b'c.857-168C>T', b'', -999999999999999999, -999999999999999999, -999999999999999999, -999999999999999999, -999999999999999999, -999999999999999999, -999999999999999999, b''), (391681, 12851, 1, -999999999, b'TTCC', b'3_prime_UTR_variant', b'', b'', b'', b'', b'', b'', b'MODIFIER', b'MIDN', b'MIDN', b'transcript', b'NM_177401.4', b'Coding', 8, 8, b'c.*245_*246insTCC', b'', -999999999999999999, -999999999999999999, -999999999999999999, -999999999999999999, -999999999999999999, -999999999999999999, 246, b''), (391682, 12852, 1, -999999999, b'CTCT', b'3_prime_UTR_variant', b'', b'', b'', b'', b'', b'', b'MODIFIER', b'MIDN', b'MIDN', b'transcript', b'NM_177401.4', b'Coding', 8, 8, b'c.*266_*267insTCT', b'', -999999999999999999, -999999999999999999, -999999999999999999, -999999999999999999, -999999999999999999, -999999999999999999, 267, b''), (391685, 148329, 0, -999999999, b'C', b'downstream_gene_variant', b'', b'', b'', b'', b'', b'', b'MODIFIER', b'MIDN', b'MIDN', b'transcript', b'NM_177401.4', b'Coding', -999999999999999999, -999999999999999999, b'c.*1922A>C', b'', -999999999999999999, -999999999999999999, -999999999999999999, -999999999999999999, -999999999999999999, -999999999999999999, 4157, b''), (500781, 189833, 0, -999999999, b'A', b'intron_variant', b'', b'', b'', b'', b'', b'', b'MODIFIER', b'MIDN', b'MIDN', b'transcript', b'NM_177401.4', b'Coding', 7, 7, b'c.1130-626G>A', b'', -999999999999999999, -999999999999999999, -999999999999999999, -999999999999999999, -999999999999999999, -999999999999999999, -999999999999999999, b''), (696580, 264779, 0, -999999999, b'G', b'upstream_gene_variant', b'', b'', b'', b'', b'', b'', b'MODIFIER', b'MIDN', b'MIDN', b'transcript', b'NM_177401.4', b'Coding', -999999999999999999, -999999999999999999, b'c.-516A>G', b'', -999999999999999999, -999999999999999999, -999999999999999999, -999999999999999999, -999999999999999999, -999999999999999999, 3652, b''), (696587, 264782, 0, -999999999, b'T', b'intron_variant', b'', b'', b'', b'', b'', b'', b'MODIFIER', b'MIDN', b'MIDN', b'transcript', b'NM_177401.4', b'Coding', 4, 7, b'c.384+411C>T', b'', -999999999999999999, -999999999999999999, -999999999999999999, -999999999999999999, -999999999999999999, -999999999999999999, -999999999999999999, b''), (696588, 264783, 0, -999999999, b'C', b'intron_variant', b'', b'', b'', b'', b'', b'', b'MODIFIER', b'MIDN', b'MIDN', b'transcript', b'NM_177401.4', b'Coding', 4, 7, b'c.384+551T>C', b'', -999999999999999999, -999999999999999999, -999999999999999999, -999999999999999999, -999999999999999999, -999999999999999999, -999999999999999999, b'')]
Anzahl Annotationen:  10
Abfragezeit:  1.014406442642212
[(696637, 264807, 0, -999999999, b'C', b'downstream_gene_variant', b'', b'', b'', b'', b'', b'', b'MODIFIER', b'WDR83OS', b'WDR83OS', b'transcript', b'NM_016145.3', b'Coding', -999999999999999999, -999999999999999999, b'c.*569C>G', b'', -999999999999999999, -999999999999999999, -999999999999999999, -999999999999999999, -999999999999999999, -999999999999999999, 4673, b''), (696640, 264808, 0, -999999999, b'A', b'downstream_gene_variant', b'', b'', b'', b'', b'', b'', b'MODIFIER', b'WDR83OS', b'WDR83OS', b'transcript', b'NM_016145.3', b'Coding', -999999999999999999, -999999999999999999, b'c.*569C>T', b'', -999999999999999999, -999999999999999999, -999999999999999999, -999999999999999999, -999999999999999999, -999999999999999999, 4019, b''), (696645, 264809, 0, -999999999, b'C', b'upstream_gene_variant', b'', b'', b'', b'', b'', b'', b'MODIFIER', b'WDR83OS', b'WDR83OS', b'transcript', b'NM_016145.3', b'Coding', -999999999999999999, -999999999999999999, b'c.-249C>G', b'', -999999999999999999, -999999999999999999, -999999999999999999, -999999999999999999, -999999999999999999, -999999999999999999, 84, b''), (696650, 264810, 0, -999999999, b'T', b'upstream_gene_variant', b'', b'', b'', b'', b'', b'', b'MODIFIER', b'WDR83OS', b'WDR83OS', b'transcript', b'NM_016145.3', b'Coding', -999999999999999999, -999999999999999999, b'c.-249G>A', b'', -999999999999999999, -999999999999999999, -999999999999999999, -999999999999999999, -999999999999999999, -999999999999999999, 1263, b''), (1348540, 514076, 0, -999999999, b'A', b'synonymous_variant', b'', b'', b'', b'', b'', b'', b'LOW', b'WDR83OS', b'WDR83OS', b'transcript', b'NM_016145.3', b'Coding', 1, 4, b'c.39C>T', b'p.Asn13Asn', 287, 861, 321, 39, 13, 106, -999999999999999999, b''), (1559996, 594977, 0, -999999999, b'A', b'downstream_gene_variant', b'', b'', b'', b'', b'', b'', b'MODIFIER', b'WDR83OS', b'WDR83OS', b'transcript', b'NM_016145.3', b'Coding', -999999999999999999, -999999999999999999, b'c.*569C>T', b'', -999999999999999999, -999999999999999999, -999999999999999999, -999999999999999999, -999999999999999999, -999999999999999999, 3045, b''), (1891789, 719959, 0, -999999999, b'T', b'upstream_gene_variant', b'', b'', b'', b'', b'', b'', b'MODIFIER', b'WDR83OS', b'WDR83OS', b'transcript', b'NM_016145.3', b'Coding', -999999999999999999, -999999999999999999, b'c.-249G>A', b'', -999999999999999999, -999999999999999999, -999999999999999999, -999999999999999999, -999999999999999999, -999999999999999999, 1625, b''), (2040217, 53735, 1, -999999999, b'T', b'upstream_gene_variant', b'', b'', b'', b'', b'', b'', b'MODIFIER', b'WDR83OS', b'WDR83OS', b'transcript', b'NM_016145.3', b'Coding', -999999999999999999, -999999999999999999, b'c.-249delG', b'', -999999999999999999, -999999999999999999, -999999999999999999, -999999999999999999, -999999999999999999, -999999999999999999, 3759, b''), (2061433, 783541, 0, -999999999, b'G', b'upstream_gene_variant', b'', b'', b'', b'', b'', b'', b'MODIFIER', b'WDR83OS', b'WDR83OS', b'transcript', b'NM_016145.3', b'Coding', -999999999999999999, -999999999999999999, b'c.-249T>C', b'', -999999999999999999, -999999999999999999, -999999999999999999, -999999999999999999, -999999999999999999, -999999999999999999, 1958, b''), (2114064, 802322, 0, -999999999, b'G', b'upstream_gene_variant', b'', b'', b'', b'', b'', b'', b'MODIFIER', b'WDR83OS', b'WDR83OS', b'transcript', b'NM_016145.3', b'Coding', -999999999999999999, -999999999999999999, b'c.-249T>C', b'', -999999999999999999, -999999999999999999, -999999999999999999, -999999999999999999, -999999999999999999, -999999999999999999, 1953, b'')]
Anzahl Annotationen:  10
Abfragezeit:  1.0169875621795654
[(499525, 189285, 0, -999999999, b'G', b'intron_variant', b'', b'', b'', b'', b'', b'', b'MODIFIER', b'TMEM105', b'TMEM105', b'transcript', b'NM_178520.3', b'Coding', 1, 2, b'c.-20+6814T>C', b'', -999999999999999999, -999999999999999999, -999999999999999999, -999999999999999999, -999999999999999999, -999999999999999999, -999999999999999999, b''), (691420, 262592, 0, -999999999, b'A', b'downstream_gene_variant', b'', b'', b'', b'', b'', b'', b'MODIFIER', b'TMEM105', b'TMEM105', b'transcript', b'NM_178520.3', b'Coding', -999999999999999999, -999999999999999999, b'c.*940C>T', b'', -999999999999999999, -999999999999999999, -999999999999999999, -999999999999999999, -999999999999999999, -999999999999999999, 4147, b''), (691423, 262593, 0, -999999999, b'T', b'downstream_gene_variant', b'', b'', b'', b'', b'', b'', b'MODIFIER', b'TMEM105', b'TMEM105', b'transcript', b'NM_178520.3', b'Coding', -999999999999999999, -999999999999999999, b'c.*940G>A', b'', -999999999999999999, -999999999999999999, -999999999999999999, -999999999999999999, -999999999999999999, -999999999999999999, 1083, b''), (691426, 262594, 0, -999999999, b'G', b'downstream_gene_variant', b'', b'', b'', b'', b'', b'', b'MODIFIER', b'TMEM105', b'TMEM105', b'transcript', b'NM_178520.3', b'Coding', -999999999999999999, -999999999999999999, b'c.*940T>C', b'', -999999999999999999, -999999999999999999, -999999999999999999, -999999999999999999, -999999999999999999, -999999999999999999, 1065, b''), (691428, 262595, 0, -999999999, b'G', b'3_prime_UTR_variant', b'', b'', b'', b'', b'', b'', b'MODIFIER', b'TMEM105', b'TMEM105', b'transcript', b'NM_178520.3', b'Coding', 3, 3, b'c.*388T>C', b'', -999999999999999999, -999999999999999999, -999999999999999999, -999999999999999999, -999999999999999999, -999999999999999999, 388, b''), (691430, 262596, 0, -999999999, b'T', b'3_prime_UTR_variant', b'', b'', b'', b'', b'', b'', b'MODIFIER', b'TMEM105', b'TMEM105', b'transcript', b'NM_178520.3', b'Coding', 3, 3, b'c.*372G>A', b'', -999999999999999999, -999999999999999999, -999999999999999999, -999999999999999999, -999999999999999999, -999999999999999999, 372, b''), (691432, 262597, 0, -999999999, b'A', b'missense_variant', b'', b'', b'', b'', b'', b'', b'MODERATE', b'TMEM105', b'TMEM105', b'transcript', b'NM_178520.3', b'Coding', 3, 3, b'c.364C>T', b'p.Arg122Trp', 914, 3319, 390, 364, 122, 129, -999999999999999999, b''), (691434, 262598, 0, -999999999, b'T', b'intron_variant', b'', b'', b'', b'', b'', b'', b'MODIFIER', b'TMEM105', b'TMEM105', b'transcript', b'NM_178520.3', b'Coding', 2, 2, b'c.55+84G>A', b'', -999999999999999999, -999999999999999999, -999999999999999999, -999999999999999999, -999999999999999999, -999999999999999999, -999999999999999999, b''), (691435, 262599, 0, -999999999, b'C', b'intron_variant', b'', b'', b'', b'', b'', b'', b'MODIFIER', b'TMEM105', b'TMEM105', b'transcript', b'NM_178520.3', b'Coding', 1, 2, b'c.-20+5354A>G', b'', -999999999999999999, -999999999999999999, -999999999999999999, -999999999999999999, -999999999999999999, -999999999999999999, -999999999999999999, b''), (691436, 262600, 0, -999999999, b'A', b'intron_variant', b'', b'', b'', b'', b'', b'', b'MODIFIER', b'TMEM105', b'TMEM105', b'transcript', b'NM_178520.3', b'Coding', 1, 2, b'c.-20+2499C>T', b'', -999999999999999999, -999999999999999999, -999999999999999999, -999999999999999999, -999999999999999999, -999999999999999999, -999999999999999999, b'')]
Anzahl Annotationen:  10
Abfragezeit:  1.0187890529632568
[(379998, 143595, 0, -999999999, b'G', b'upstream_gene_variant', b'', b'', b'', b'', b'', b'', b'MODIFIER', b'BAHCC1', b'BAHCC1', b'transcript', b'NM_001291324.1', b'Coding', -999999999999999999, -999999999999999999, b'c.-20C>G', b'', -999999999999999999, -999999999999999999, -999999999999999999, -999999999999999999, -999999999999999999, -999999999999999999, 3264, b''), (380001, 143596, 0, -999999999, b'C', b'upstream_gene_variant', b'', b'', b'', b'', b'', b'', b'MODIFIER', b'BAHCC1', b'BAHCC1', b'transcript', b'NM_001291324.1', b'Coding', -999999999999999999, -999999999999999999, b'c.-20T>C', b'', -999999999999999999, -999999999999999999, -999999999999999999, -999999999999999999, -999999999999999999, -999999999999999999, 569, b''), (380004, 12432, 1, -999999999, b'TGC', b'upstream_gene_variant', b'', b'', b'', b'', b'', b'', b'MODIFIER', b'BAHCC1', b'BAHCC1', b'transcript', b'NM_001291324.1', b'Coding', -999999999999999999, -999999999999999999, b'c.-20_-20insGC', b'', -999999999999999999, -999999999999999999, -999999999999999999, -999999999999999999, -999999999999999999, -999999999999999999, 568, b''), (380007, 143597, 0, -999999999, b'C', b'intron_variant', b'', b'', b'', b'', b'', b'', b'MODIFIER', b'BAHCC1', b'BAHCC1', b'transcript', b'NM_001291324.1', b'Coding', 1, 27, b'c.178+6830T>C', b'', -999999999999999999, -999999999999999999, -999999999999999999, -999999999999999999, -999999999999999999, -999999999999999999, -999999999999999999, b''), (380008, 143598, 0, -999999999, b'T', b'intron_variant', b'', b'', b'', b'', b'', b'', b'MODIFIER', b'BAHCC1', b'BAHCC1', b'transcript', b'NM_001291324.1', b'Coding', 1, 27, b'c.178+9446C>T', b'', -999999999999999999, -999999999999999999, -999999999999999999, -999999999999999999, -999999999999999999, -999999999999999999, -999999999999999999, b''), (380009, 143599, 0, -999999999, b'G', b'intron_variant', b'', b'', b'', b'', b'', b'', b'MODIFIER', b'BAHCC1', b'BAHCC1', b'transcript', b'NM_001291324.1', b'Coding', 1, 27, b'c.178+10371C>G', b'', -999999999999999999, -999999999999999999, -999999999999999999, -999999999999999999, -999999999999999999, -999999999999999999, -999999999999999999, b''), (380010, 143600, 0, -999999999, b'G', b'intron_variant', b'', b'', b'', b'', b'', b'', b'MODIFIER', b'BAHCC1', b'BAHCC1', b'transcript', b'NM_001291324.1', b'Coding', 1, 27, b'c.178+11102A>G', b'', -999999999999999999, -999999999999999999, -999999999999999999, -999999999999999999, -999999999999999999, -999999999999999999, -999999999999999999, b''), (380011, 143601, 0, -999999999, b'T', b'intron_variant', b'', b'', b'', b'', b'', b'', b'MODIFIER', b'BAHCC1', b'BAHCC1', b'transcript', b'NM_001291324.1', b'Coding', 1, 27, b'c.178+11327C>T', b'', -999999999999999999, -999999999999999999, -999999999999999999, -999999999999999999, -999999999999999999, -999999999999999999, -999999999999999999, b''), (380012, 143602, 0, -999999999, b'G', b'intron_variant', b'', b'', b'', b'', b'', b'', b'MODIFIER', b'BAHCC1', b'BAHCC1', b'transcript', b'NM_001291324.1', b'Coding', 1, 27, b'c.178+11429A>G', b'', -999999999999999999, -999999999999999999, -999999999999999999, -999999999999999999, -999999999999999999, -999999999999999999, -999999999999999999, b''), (380013, 143603, 0, -999999999, b'G', b'intron_variant', b'', b'', b'', b'', b'', b'', b'MODIFIER', b'BAHCC1', b'BAHCC1', b'transcript', b'NM_001291324.1', b'Coding', 1, 27, b'c.178+11601T>G', b'', -999999999999999999, -999999999999999999, -999999999999999999, -999999999999999999, -999999999999999999, -999999999999999999, -999999999999999999, b'')]
Anzahl Annotationen:  10
