False annotations_table.indexed
True annotations_table.autoindex
False calls_table.indexed
True calls_table.autoindex
False samples_table.indexed
True samples_table.autoindex
False variants_snp_table.indexed
True variants_snp_table.autoindex
False variants_nosnp_table.indexed
True variants_nosnp_table.autoindex
Processing Time: 0.02796030044555664
['RB_E_011']
Processing Time: 0.016648292541503906
{1}
Durchlauf call 4.8135905265808105
Anzahl gefundene calls 155390
Gesamtzeit call 4.8136305809021
Anzahl gefundene calls 155390
Processing Time: 4.813643217086792
['RB_E_011']
Processing Time: 0.0006480216979980469
{0}
Durchlauf call 1.1401090621948242
Anzahl gefundene calls 164157
Gesamtzeit call 1.1401515007019043
Anzahl gefundene calls 164157
Processing Time: 1.140162467956543
hier0!
hier1!
hier2!
Anzahl Varianten 139966
Processing Time: 11615.127794742584
Processing Time: 11615.129562616348
Abfragezeit:  11621.31550192833
