False annotations_table.indexed
True annotations_table.autoindex
False calls_table.indexed
True calls_table.autoindex
False samples_table.indexed
True samples_table.autoindex
False variants_snp_table.indexed
True variants_snp_table.autoindex
False variants_nosnp_table.indexed
True variants_nosnp_table.autoindex
Processing Time: 0.027183055877685547
Processing Time: 0.0011665821075439453
Processing Time: 0.0005180835723876953
Processing Time: 0.0004954338073730469
Processing Time: 0.0004923343658447266
Processing Time: 0.0031201839447021484
Abfragezeit:  4.197597026824951
Anzahl 4
[ (733107, b'01', 142637034, b'C', b'T', 1, 0, 24, 0, 57.17, 0, 3, 0, 3, 0.0, 19.06, 45.7, 0.0, nan, nan, b'RB_E_023', -999999999999999999, b'B', -999999999999999999)
 (733107, b'01', 142637034, b'C', b'T', 1, 0, 29, 0, 3086.44, 1, 127, 61, 66, 4.446, 14.36, 59.91, 2.7142, -0.098, 0.409, b'RB_E_025', -999999999999999999, b'T', -999999999999999999)
 (733107, b'01', 142637034, b'C', b'T', 1, 0, 48, 0, 161.02, 0, 3, 0, 3, 0.0, 32.2, 60.0, 0.0, nan, nan, b'RB_E_036', -999999999999999999, b'B', -999999999999999999)
 (733107, b'01', 142637034, b'C', b'T', 1, 0, 49, 0, 88.84, 0, 3, 0, 3, 0.0, 17.77, 60.0, 0.0, nan, nan, b'RB_E_036', -999999999999999999, b'T', -999999999999999999)]
Processing Time: 0.0005507469177246094
Processing Time: 0.0005176067352294922
Processing Time: 0.0004978179931640625
Processing Time: 0.0004913806915283203
Processing Time: 0.003109455108642578
Abfragezeit:  1.6675801277160645
Anzahl 4
[ (535877, b'04', 185614903, b'A', b'G', 1, 0, 12, 0, 85.84, 0, 1, 0, 1, 0.0, 28.61, 60.0, 0.0, nan, nan, b'RB_E_017', -999999999999999999, b'B', -999999999999999999)
 (535877, b'04', 185614903, b'A', b'G', 1, 0, 13, 0, 867.44, 1, 76, 29, 47, 13.485, 6.78, 35.27, 14.8227, 3.745, -0.419, b'RB_E_017', -999999999999999999, b'T', -999999999999999999)
 (535877, b'04', 185614903, b'A', b'G', 1, 0, 30, 0, 2360.44, 1, 112, 60, 52, 2.465, 11.8, 57.53, 2.3188, 1.066, -2.415, b'RB_E_026', -999999999999999999, b'B', -999999999999999999)
 (535877, b'04', 185614903, b'A', b'G', 1, 0, 37, 0, 6829.44, 1, 250, 127, 123, 5.895, 13.66, 59.9, 5.714, -0.656, -0.833, b'RB_E_029', -999999999999999999, b'T', -999999999999999999)]
Processing Time: 0.0005540847778320312
Processing Time: 0.0033228397369384766
Abfragezeit:  1.6550276279449463
Anzahl 1
[ (986506, b'06', 99881639, b'T', b'C', 1, 0, 48, 0, 20.0, 0, 2, 0, 2, 0.0, 10.0, 60.0, 0.0, nan, nan, b'RB_E_036', -999999999999999999, b'B', -999999999999999999)]
Processing Time: 0.0005614757537841797
Processing Time: 0.0005011558532714844
Processing Time: 0.0004916191101074219
Processing Time: 0.0004925727844238281
Processing Time: 0.0004999637603759766
Processing Time: 0.0004889965057373047
Processing Time: 0.0004887580871582031
Processing Time: 0.0004897117614746094
Processing Time: 0.0005064010620117188
Processing Time: 0.0004889965057373047
Processing Time: 0.0004851818084716797
Processing Time: 0.0004870891571044922
Processing Time: 0.0004885196685791016
Processing Time: 0.0011916160583496094
Processing Time: 0.0004899501800537109
Processing Time: 0.003114461898803711
Abfragezeit:  1.6688642501831055
Anzahl 15
[ (18412, b'09', 131882540, b'GA', b'G', 0, 0, 2, 1, 88.31, 0, 4, 0, 4, 0.0, 17.66, 57.52, nan, nan, nan, b'RB_E_012', -999999999999999999, b'B', -999999999999999999)
 (18412, b'09', 131882540, b'GA', b'G', 0, 0, 3, 1, 1293.4, 1, 139, 94, 39, 0.508, 3.63, 40.97, nan, -4.877, -0.487, b'RB_E_012', -999999999999999999, b'T', -999999999999999999)
 (18412, b'09', 131882540, b'GA', b'G', 0, 0, 4, 1, 236.4, 1, 9, 6, 3, 0.0, 10.43, 57.81, nan, -0.05, -0.854, b'RB_E_013', -999999999999999999, b'B', -999999999999999999)
 (18412, b'09', 131882540, b'GA', b'G', 0, 0, 5, 1, 236.4, 1, 8, 5, 3, 0.0, 10.43, 57.81, nan, -0.05, -0.854, b'RB_E_013', -999999999999999999, b'T', -999999999999999999)
 (18412, b'09', 131882540, b'GA', b'G', 0, 0, 8, 1, 603.46, 1, 38, 5, 15, 2.561, 8.75, 58.01, nan, 1.854, -0.172, b'RB_E_015', -999999999999999999, b'B', -999999999999999999)
 (18412, b'09', 131882540, b'GA', b'G', 0, 0, 9, 1, 278.98, 0, 2, 0, 2, 0.0, 28.94, 55.21, nan, nan, nan, b'RB_E_015', -999999999999999999, b'T', -999999999999999999)
 (18412, b'09', 131882540, b'GA', b'G', 0, 0, 10, 1, 1050.4, 1, 43, 18, 12, 6.567, 10.94, 59.86, nan, -0.496, 0.08, b'RB_E_016', -999999999999999999, b'B', -999999999999999999)
 (18412, b'09', 131882540, b'GA', b'G', 0, 0, 11, 1, 118.83, 1, 9, 2, 4, 0.0, 4.75, 52.13, nan, 0.072, 1.949, b'RB_E_016', -999999999999999999, b'T', -999999999999999999)
 (18412, b'09', 131882540, b'GA', b'G', 0, 0, 14, 1, 3683.16, 0, 56, 0, 47, 0.0, 28.77, 60.32, nan, nan, nan, b'RB_E_018', -999999999999999999, b'B', -999999999999999999)
 (18412, b'09', 131882540, b'GA', b'G', 0, 0, 32, 1, 656.4, 1, 24, 12, 11, 0.0, 13.13, 60.43, nan, -1.094, -0.124, b'RB_E_027', -999999999999999999, b'B', -999999999999999999)
 (18412, b'09', 131882540, b'GA', b'G', 0, 0, 33, 1, 2262.16, 0, 32, 0, 32, 0.0, 28.12, 59.8, nan, nan, nan, b'RB_E_027', -999999999999999999, b'T', -999999999999999999)
 (18412, b'09', 131882540, b'GA', b'G', 0, 0, 34, 1, 2502.16, 0, 52, 0, 42, 5.466, 23.83, 60.68, nan, -0.681, -0.652, b'RB_E_028', -999999999999999999, b'B', -999999999999999999)
 (18412, b'09', 131882540, b'GA', b'G', 0, 0, 35, 1, 1540.4, 1, 10, 1, 6, 1.497, 16.05, 46.05, nan, -4.646, -0.084, b'RB_E_028', -999999999999999999, b'T', -999999999999999999)
 (18412, b'09', 131882540, b'GA', b'G', 0, 0, 40, 1, 1328.16, 0, 15, 0, 13, 0.0, 23.72, 51.37, nan, nan, nan, b'RB_E_032', -999999999999999999, b'B', -999999999999999999)
 (18412, b'09', 131882540, b'GA', b'G', 0, 0, 41, 1, 1328.16, 0, 13, 0, 10, 0.0, 23.72, 51.37, nan, nan, nan, b'RB_E_032', -999999999999999999, b'T', -999999999999999999)]
Processing Time: 0.0005574226379394531
Processing Time: 0.0005164146423339844
Processing Time: 0.0004894733428955078
Processing Time: 0.0004918575286865234
Processing Time: 0.0004916191101074219
Processing Time: 0.0004904270172119141
Processing Time: 0.0005056858062744141
Processing Time: 0.0004909038543701172
Processing Time: 0.0004830360412597656
Processing Time: 0.00048613548278808594
Processing Time: 0.0005054473876953125
Processing Time: 0.0004839897155761719
Processing Time: 0.000484466552734375
Processing Time: 0.0004832744598388672
Processing Time: 0.00048279762268066406
Processing Time: 0.0004856586456298828
Processing Time: 0.0004830360412597656
Processing Time: 0.00048160552978515625
Processing Time: 0.00048470497131347656
Processing Time: 0.0005040168762207031
Processing Time: 0.0004906654357910156
Processing Time: 0.0004878044128417969
Processing Time: 0.0004892349243164062
Processing Time: 0.00048804283142089844
Processing Time: 0.0005021095275878906
Processing Time: 0.00048828125
Processing Time: 0.0004909038543701172
Processing Time: 0.00048732757568359375
Processing Time: 0.0004885196685791016
Processing Time: 0.0004918575286865234
Processing Time: 0.0004904270172119141
Processing Time: 0.00048422813415527344
Processing Time: 0.003113269805908203
Abfragezeit:  1.7303478717803955
Anzahl 32
[ (19156, b'11', 5896144, b'T', b'TTCA', 0, 0, 2, 1, 296.31, 0, 4, 0, 4, 0.0, 28.55, 62.13, nan, nan, nan, b'RB_E_012', -999999999999999999, b'B', -999999999999999999)
 (19156, b'11', 5896144, b'T', b'TTCA', 0, 0, 3, 1, 403.4, 1, 7, 3, 4, 0.0, 20.17, 57.61, nan, -0.521, 0.637, b'RB_E_012', -999999999999999999, b'T', -999999999999999999)
 (19156, b'11', 5896144, b'T', b'TTCA', 0, 0, 4, 1, 4509.16, 0, 45, 0, 45, 0.0, 25.45, 60.11, nan, nan, nan, b'RB_E_013', -999999999999999999, b'B', -999999999999999999)
 (19156, b'11', 5896144, b'T', b'TTCA', 0, 0, 5, 1, 879.21, 0, 7, 0, 7, 0.0, 33.6, 58.2, nan, nan, nan, b'RB_E_013', -999999999999999999, b'T', -999999999999999999)
 (19156, b'11', 5896144, b'T', b'TTCA', 0, 0, 6, 1, 739.56, 1, 20, 3, 15, 0.0, 17.61, 58.89, nan, 1.281, 0.903, b'RB_E_014', -999999999999999999, b'B', -999999999999999999)
 (19156, b'11', 5896144, b'T', b'TTCA', 0, 0, 7, 1, 9174.4, 1, 130, 85, 40, 1.103, 10.88, 52.46, nan, -9.269, -0.254, b'RB_E_014', -999999999999999999, b'T', -999999999999999999)
 (19156, b'11', 5896144, b'T', b'TTCA', 0, 0, 8, 1, 519.5, 0, 5, 0, 5, 0.0, 29.99, 43.31, nan, nan, nan, b'RB_E_015', -999999999999999999, b'B', -999999999999999999)
 (19156, b'11', 5896144, b'T', b'TTCA', 0, 0, 9, 1, 6753.16, 0, 77, 0, 71, 0.0, 30.6, 45.01, nan, nan, nan, b'RB_E_015', -999999999999999999, b'T', -999999999999999999)
 (19156, b'11', 5896144, b'T', b'TTCA', 0, 0, 16, 1, 384.23, 0, 14, 0, 11, 0.0, 20.22, 61.69, nan, nan, nan, b'RB_E_019', -999999999999999999, b'B', -999999999999999999)
 (19156, b'11', 5896144, b'T', b'TTCA', 0, 0, 17, 1, 111.4, 1, 10, 3, 7, 3.802, 3.59, 48.52, nan, 0.146, -0.029, b'RB_E_019', -999999999999999999, b'T', -999999999999999999)
 (19156, b'11', 5896144, b'T', b'TTCA', 0, 0, 20, 1, 508.71, 0, 3, 0, 3, 0.0, 31.15, 42.6, nan, nan, nan, b'RB_E_021', -999999999999999999, b'B', -999999999999999999)
 (19156, b'11', 5896144, b'T', b'TTCA', 0, 0, 21, 1, 394.26, 0, 5, 0, 5, 0.0, 30.9, 56.52, nan, nan, nan, b'RB_E_021', -999999999999999999, b'T', -999999999999999999)
 (19156, b'11', 5896144, b'T', b'TTCA', 0, 0, 26, 1, 2502.4, 1, 111, 51, 51, 1.855, 12.83, 59.74, nan, 1.963, 0.378, b'RB_E_024', -999999999999999999, b'B', -999999999999999999)
 (19156, b'11', 5896144, b'T', b'TTCA', 0, 0, 27, 1, 189.4, 1, 12, 6, 3, 3.31, 9.47, 61.07, nan, 0.868, -1.794, b'RB_E_024', -999999999999999999, b'T', -999999999999999999)
 (19156, b'11', 5896144, b'T', b'TTCA', 0, 0, 28, 1, 4587.16, 0, 78, 1, 61, 0.0, 22.49, 60.03, nan, 0.377, -1.862, b'RB_E_025', -999999999999999999, b'B', -999999999999999999)
 (19156, b'11', 5896144, b'T', b'TTCA', 0, 0, 29, 1, 279.98, 1, 7, 1, 4, 0.0, 15.55, 47.03, nan, -0.736, 0.736, b'RB_E_025', -999999999999999999, b'T', -999999999999999999)
 (19156, b'11', 5896144, b'T', b'TTCA', 0, 0, 30, 1, 1586.4, 1, 116, 51, 37, 4.913, 7.55, 46.28, nan, -3.223, -0.622, b'RB_E_026', -999999999999999999, b'B', -999999999999999999)
 (19156, b'11', 5896144, b'T', b'TTCA', 0, 0, 31, 1, 146.4, 1, 24, 11, 9, 6.528, 2.93, 56.69, nan, -0.752, -0.489, b'RB_E_026', -999999999999999999, b'T', -999999999999999999)
 (19156, b'11', 5896144, b'T', b'TTCA', 0, 0, 36, 1, 2412.16, 0, 27, 0, 27, 0.0, 31.85, 60.17, nan, nan, nan, b'RB_E_029', -999999999999999999, b'B', -999999999999999999)
 (19156, b'11', 5896144, b'T', b'TTCA', 0, 0, 37, 1, 6110.16, 0, 81, 0, 77, 0.0, 23.84, 36.11, nan, nan, nan, b'RB_E_029', -999999999999999999, b'T', -999999999999999999)
 (19156, b'11', 5896144, b'T', b'TTCA', 0, 0, 38, 1, 193.4, 1, 10, 4, 5, 0.0, 19.34, 59.89, nan, 0.143, -1.186, b'RB_E_030', -999999999999999999, b'B', -999999999999999999)
 (19156, b'11', 5896144, b'T', b'TTCA', 0, 0, 39, 1, 465.4, 1, 23, 19, 4, 0.0, 7.16, 53.89, nan, -5.847, 2.904, b'RB_E_030', -999999999999999999, b'T', -999999999999999999)
 (19156, b'11', 5896144, b'T', b'TTCA', 0, 0, 40, 1, 6556.16, 0, 82, 0, 78, 0.0, 31.55, 42.97, nan, nan, nan, b'RB_E_032', -999999999999999999, b'B', -999999999999999999)
 (19156, b'11', 5896144, b'T', b'TTCA', 0, 0, 41, 1, 6924.4, 1, 120, 83, 33, 0.0, 8.81, 53.64, nan, -6.944, -2.26, b'RB_E_032', -999999999999999999, b'T', -999999999999999999)
 (19156, b'11', 5896144, b'T', b'TTCA', 0, 0, 42, 1, 2228.16, 0, 26, 0, 26, 0.0, 32.44, 60.97, nan, nan, nan, b'RB_E_033', -999999999999999999, b'B', -999999999999999999)
 (19156, b'11', 5896144, b'T', b'TTCA', 0, 0, 43, 1, 861.4, 1, 32, 14, 16, 3.675, 16.25, 60.41, nan, -0.134, 0.631, b'RB_E_033', -999999999999999999, b'T', -999999999999999999)
 (19156, b'11', 5896144, b'T', b'TTCA', 0, 0, 46, 1, 13087.16, 0, 86, 0, 82, 0.0, 33.11, 54.35, nan, nan, nan, b'RB_E_035', -999999999999999999, b'B', -999999999999999999)
 (19156, b'11', 5896144, b'T', b'TTCA', 0, 0, 47, 1, 2273.16, 0, 52, 2, 45, 2.302, 19.77, 60.48, nan, 2.37, -0.942, b'RB_E_035', -999999999999999999, b'T', -999999999999999999)
 (19156, b'11', 5896144, b'T', b'TTCA', 0, 0, 50, 1, 611.4, 1, 45, 19, 22, 2.364, 7.64, 56.92, nan, 1.783, -0.816, b'RB_E_037', -999999999999999999, b'B', -999999999999999999)
 (19156, b'11', 5896144, b'T', b'TTCA', 0, 0, 51, 1, 83.43, 1, 8, 3, 5, 0.0, 10.43, 53.95, nan, -1.464, 0.705, b'RB_E_037', -999999999999999999, b'T', -999999999999999999)
 (19156, b'11', 5896144, b'T', b'TTCA', 0, 0, 56, 1, 4728.16, 0, 54, 0, 54, 0.0, 30.48, 59.15, nan, nan, nan, b'RB_E_044', -999999999999999999, b'B', -999999999999999999)
 (19156, b'11', 5896144, b'T', b'TTCA', 0, 0, 57, 1, 303.4, 1, 33, 18, 10, 8.516, 3.37, 57.96, nan, 0.973, 2.799, b'RB_E_044', -999999999999999999, b'T', -999999999999999999)]
Processing Time: 0.0005543231964111328
Processing Time: 0.0005075931549072266
Processing Time: 0.0005009174346923828
Processing Time: 0.0004975795745849609
Processing Time: 0.000492095947265625
Processing Time: 0.0004942417144775391
Processing Time: 0.00048828125
Processing Time: 0.000492095947265625
Processing Time: 0.0005078315734863281
Processing Time: 0.0004909038543701172
Processing Time: 0.0004932880401611328
Processing Time: 0.0004935264587402344
Processing Time: 0.0004916191101074219
Processing Time: 0.0004887580871582031
Processing Time: 0.0004870891571044922
Processing Time: 0.0004906654357910156
Processing Time: 0.00049591064453125
Processing Time: 0.0005087852478027344
Processing Time: 0.0004894733428955078
Processing Time: 0.0004858970642089844
Processing Time: 0.0004875659942626953
Processing Time: 0.0004899501800537109
Processing Time: 0.0005030632019042969
Processing Time: 0.0004849433898925781
Processing Time: 0.0004856586456298828
Processing Time: 0.0004878044128417969
Processing Time: 0.0004987716674804688
Processing Time: 0.0004932880401611328
Processing Time: 0.0004930496215820312
Processing Time: 0.0004901885986328125
Processing Time: 0.00048542022705078125
Processing Time: 0.0005013942718505859
Processing Time: 0.0004849433898925781
Processing Time: 0.0004889965057373047
Processing Time: 0.0004868507385253906
Processing Time: 0.0005004405975341797
Processing Time: 0.0004868507385253906
Processing Time: 0.0031147003173828125
Abfragezeit:  1.732675552368164
Anzahl 37
[ (19810, b'13', 32606135, b'TC', b'T', 0, 0, 2, 1, 658.16, 0, 12, 0, 12, 0.0, 31.34, 58.45, nan, nan, nan, b'RB_E_012', -999999999999999999, b'B', -999999999999999999)
 (19810, b'13', 32606135, b'TC', b'T', 0, 0, 3, 1, 1227.96, 0, 19, 0, 8, 0.0, 18.06, 54.14, nan, 1.595, -1.04, b'RB_E_012', -999999999999999999, b'T', -999999999999999999)
 (19810, b'13', 32606135, b'TC', b'T', 0, 0, 4, 1, 491.4, 1, 59, 32, 23, 2.054, 4.55, 55.54, nan, 0.662, -0.546, b'RB_E_013', -999999999999999999, b'B', -999999999999999999)
 (19810, b'13', 32606135, b'TC', b'T', 0, 0, 5, 1, 246.4, 1, 30, 21, 8, 2.846, 3.62, 48.23, nan, -1.921, 3.877, b'RB_E_013', -999999999999999999, b'T', -999999999999999999)
 (19810, b'13', 32606135, b'TC', b'T', 0, 0, 6, 1, 397.33, 1, 10, 3, 7, 2.869, 26.49, 60.72, nan, -0.072, 1.083, b'RB_E_014', -999999999999999999, b'B', -999999999999999999)
 (19810, b'13', 32606135, b'TC', b'T', 0, 0, 10, 1, 641.66, 1, 13, 2, 10, 0.0, 22.13, 59.11, nan, 0.417, -1.25, b'RB_E_016', -999999999999999999, b'B', -999999999999999999)
 (19810, b'13', 32606135, b'TC', b'T', 0, 0, 11, 1, 316.4, 1, 10, 5, 5, 0.0, 21.09, 60.72, nan, 0.412, -1.237, b'RB_E_016', -999999999999999999, b'T', -999999999999999999)
 (19810, b'13', 32606135, b'TC', b'T', 0, 0, 12, 1, 491.4, 1, 36, 14, 14, 0.0, 5.92, 50.21, nan, 2.551, -2.007, b'RB_E_017', -999999999999999999, b'B', -999999999999999999)
 (19810, b'13', 32606135, b'TC', b'T', 0, 0, 13, 1, 2160.4, 1, 80, 49, 31, 0.603, 13.34, 60.19, nan, 0.845, 0.862, b'RB_E_017', -999999999999999999, b'T', -999999999999999999)
 (19810, b'13', 32606135, b'TC', b'T', 0, 0, 18, 1, 155.98, 0, 2, 0, 2, 0.0, 31.2, 60.0, nan, nan, nan, b'RB_E_020', -999999999999999999, b'B', -999999999999999999)
 (19810, b'13', 32606135, b'TC', b'T', 0, 0, 19, 1, 279.22, 0, 14, 1, 10, 0.0, 8.46, 43.68, nan, 0.492, -0.164, b'RB_E_020', -999999999999999999, b'T', -999999999999999999)
 (19810, b'13', 32606135, b'TC', b'T', 0, 0, 20, 1, 528.4, 1, 43, 13, 24, 1.992, 4.68, 53.92, nan, 1.244, -0.151, b'RB_E_021', -999999999999999999, b'B', -999999999999999999)
 (19810, b'13', 32606135, b'TC', b'T', 0, 0, 21, 1, 528.4, 1, 69, 31, 31, 1.992, 4.68, 53.92, nan, 1.244, -0.151, b'RB_E_021', -999999999999999999, b'T', -999999999999999999)
 (19810, b'13', 32606135, b'TC', b'T', 0, 0, 22, 1, 1329.16, 0, 20, 0, 17, 0.0, 30.21, 58.35, nan, nan, nan, b'RB_E_022', -999999999999999999, b'B', -999999999999999999)
 (19810, b'13', 32606135, b'TC', b'T', 0, 0, 23, 1, 1561.4, 1, 74, 34, 34, 1.355, 9.7, 46.18, nan, 4.947, -0.301, b'RB_E_022', -999999999999999999, b'T', -999999999999999999)
 (19810, b'13', 32606135, b'TC', b'T', 0, 0, 24, 1, 9157.16, 0, 39, 0, 39, 0.0, 30.86, 32.3, nan, nan, nan, b'RB_E_023', -999999999999999999, b'B', -999999999999999999)
 (19810, b'13', 32606135, b'TC', b'T', 0, 0, 25, 1, 1134.16, 0, 17, 0, 17, 0.0, 29.79, 60.0, nan, nan, nan, b'RB_E_023', -999999999999999999, b'T', -999999999999999999)
 (19810, b'13', 32606135, b'TC', b'T', 0, 0, 26, 1, 6736.16, 0, 79, 0, 78, 0.0, 23.63, 60.34, nan, nan, nan, b'RB_E_024', -999999999999999999, b'B', -999999999999999999)
 (19810, b'13', 32606135, b'TC', b'T', 0, 0, 27, 1, 2111.16, 0, 23, 0, 22, 0.0, 30.8, 58.02, nan, nan, nan, b'RB_E_024', -999999999999999999, b'T', -999999999999999999)
 (19810, b'13', 32606135, b'TC', b'T', 0, 0, 28, 1, 545.4, 1, 9, 6, 3, 0.0, 22.72, 50.64, nan, -1.992, 3.26, b'RB_E_025', -999999999999999999, b'B', -999999999999999999)
 (19810, b'13', 32606135, b'TC', b'T', 0, 0, 29, 1, 191.4, 1, 17, 7, 6, 0.0, 5.63, 52.55, nan, -0.121, 0.364, b'RB_E_025', -999999999999999999, b'T', -999999999999999999)
 (19810, b'13', 32606135, b'TC', b'T', 0, 0, 32, 1, 82.72, 0, 45, 1, 31, 0.0, 0.81, 48.74, nan, -0.742, 0.171, b'RB_E_027', -999999999999999999, b'B', -999999999999999999)
 (19810, b'13', 32606135, b'TC', b'T', 0, 0, 33, 1, 1976.4, 1, 92, 55, 35, 0.0, 12.13, 60.4, nan, 1.171, -1.121, b'RB_E_027', -999999999999999999, b'T', -999999999999999999)
 (19810, b'13', 32606135, b'TC', b'T', 0, 0, 34, 1, 1328.16, 0, 9, 0, 9, 0.0, 30.32, 53.91, nan, nan, nan, b'RB_E_028', -999999999999999999, b'B', -999999999999999999)
 (19810, b'13', 32606135, b'TC', b'T', 0, 0, 35, 1, 244.75, 0, 2, 0, 2, 0.0, 34.96, 57.47, nan, nan, nan, b'RB_E_028', -999999999999999999, b'T', -999999999999999999)
 (19810, b'13', 32606135, b'TC', b'T', 0, 0, 46, 1, 468.12, 1, 29, 4, 15, 0.0, 7.67, 50.08, nan, 2.497, 0.779, b'RB_E_035', -999999999999999999, b'B', -999999999999999999)
 (19810, b'13', 32606135, b'TC', b'T', 0, 0, 47, 1, 468.12, 0, 28, 1, 20, 0.0, 7.67, 50.08, nan, 2.497, 0.779, b'RB_E_035', -999999999999999999, b'T', -999999999999999999)
 (19810, b'13', 32606135, b'TC', b'T', 0, 0, 48, 1, 152.98, 0, 2, 0, 2, 0.0, 25.5, 60.0, nan, nan, nan, b'RB_E_036', -999999999999999999, b'B', -999999999999999999)
 (19810, b'13', 32606135, b'TC', b'T', 0, 0, 49, 1, 989.16, 0, 20, 0, 15, 0.0, 28.26, 59.65, nan, 1.614, -1.375, b'RB_E_036', -999999999999999999, b'T', -999999999999999999)
 (19810, b'13', 32606135, b'TC', b'T', 0, 0, 50, 1, 638.3, 0, 17, 1, 13, 0.0, 18.77, 59.28, nan, 1.007, 0.885, b'RB_E_037', -999999999999999999, b'B', -999999999999999999)
 (19810, b'13', 32606135, b'TC', b'T', 0, 0, 51, 1, 638.3, 1, 17, 3, 13, 0.0, 18.77, 59.28, nan, 1.007, 0.885, b'RB_E_037', -999999999999999999, b'T', -999999999999999999)
 (19810, b'13', 32606135, b'TC', b'T', 0, 0, 52, 1, 344.15, 1, 17, 3, 13, 0.0, 9.56, 44.33, nan, 0.425, 1.518, b'RB_E_040', -999999999999999999, b'B', -999999999999999999)
 (19810, b'13', 32606135, b'TC', b'T', 0, 0, 53, 1, 1108.16, 0, 16, 0, 14, 0.0, 33.58, 62.57, nan, nan, nan, b'RB_E_040', -999999999999999999, b'T', -999999999999999999)
 (19810, b'13', 32606135, b'TC', b'T', 0, 0, 56, 1, 278.4, 1, 19, 12, 7, 0.0, 9.94, 60.0, nan, 0.836, -0.492, b'RB_E_044', -999999999999999999, b'B', -999999999999999999)
 (19810, b'13', 32606135, b'TC', b'T', 0, 0, 57, 1, 1016.18, 0, 7, 0, 7, 0.0, 26.41, 54.94, nan, nan, nan, b'RB_E_044', -999999999999999999, b'T', -999999999999999999)
 (19810, b'13', 32606135, b'TC', b'T', 0, 0, 58, 1, 3613.16, 0, 56, 0, 56, 0.0, 28.7, 60.57, nan, nan, nan, b'RB_E_045', -999999999999999999, b'B', -999999999999999999)
 (19810, b'13', 32606135, b'TC', b'T', 0, 0, 59, 1, 2343.16, 0, 26, 0, 20, 0.0, 33.73, 60.49, nan, nan, nan, b'RB_E_045', -999999999999999999, b'T', -999999999999999999)]
Processing Time: 0.3344869613647461
Abfragezeit:  0.33593106269836426
Anzahl 0
[]
Processing Time: 0.0005590915679931641
Processing Time: 0.0005044937133789062
Processing Time: 0.000507354736328125
Processing Time: 0.0004928112030029297
Processing Time: 0.0031211376190185547
Abfragezeit:  1.630645990371704
Anzahl 4
[ (20983, b'18', 11752763, b'GGGA', b'G', 0, 0, 2, 1, 360.4, 1, 11, 5, 4, 1.931, 20.02, 57.39, nan, -0.998, 1.838, b'RB_E_012', -999999999999999999, b'B', -999999999999999999)
 (20983, b'18', 11752763, b'GGGA', b'G', 0, 0, 3, 1, 5405.4, 1, 84, 39, 31, 4.826, 13.96, 50.65, nan, -7.099, -0.186, b'RB_E_012', -999999999999999999, b'T', -999999999999999999)
 (20983, b'18', 11752763, b'GGGA', b'G', 0, 0, 20, 1, 285.4, 1, 42, 18, 12, 7.917, 2.62, 57.62, nan, 0.559, 0.031, b'RB_E_021', -999999999999999999, b'B', -999999999999999999)
 (20983, b'18', 11752763, b'GGGA', b'G', 0, 0, 21, 1, 984.4, 1, 28, 10, 18, 0.0, 15.88, 59.55, nan, 1.585, 0.513, b'RB_E_021', -999999999999999999, b'T', -999999999999999999)]
Processing Time: 0.0005426406860351562
Processing Time: 0.0033211708068847656
Abfragezeit:  1.603954792022705
Anzahl 1
[ (1073205, b'21', 38417209, b'A', b'C', 0, 1, 59, 0, 21.23, 0, 3, 0, 2, 0.0, 7.08, 49.96, 0.7471, -0.727, 0.727, b'RB_E_045', -999999999999999999, b'T', -999999999999999999)]
Processing Time: 0.0005357265472412109
Processing Time: 0.0033206939697265625
Abfragezeit:  1.5908782482147217
Anzahl 1
[ (1073447, b'X', 48923681, b'G', b'A', 1, 0, 59, 0, 20.0, 0, 2, 0, 2, 0.0, 10.0, 60.0, 0.0, nan, nan, b'RB_E_045', -999999999999999999, b'T', -999999999999999999)]
