         154 function calls (146 primitive calls) in 0.002 seconds

   Ordered by: call count

   ncalls  tottime  percall  cumtime  percall filename:lineno(function)
       56    0.000    0.000    0.000    0.000 {tables.utilsextension.get_nested_field}
     12/4    0.000    0.000    0.001    0.000 utils.py:240(newfget)
       10    0.000    0.000    0.000    0.000 {built-in method isinstance}
        8    0.000    0.000    0.000    0.000 {built-in method empty}
        8    0.000    0.000    0.000    0.000 table.py:958(_get_container)
        8    0.000    0.000    0.000    0.000 {built-in method time}
        5    0.000    0.000    0.000    0.000 {built-in method print}
        4    0.000    0.000    0.000    0.000 {method 'values' of 'dict' objects}
        4    0.000    0.000    0.001    0.000 table.py:631(_v_wdflts)
        4    0.000    0.000    0.001    0.000 table.py:594(row)
        4    0.000    0.000    0.000    0.000 {built-in method getattr}
        4    0.000    0.000    0.000    0.000 leaf.py:147(<lambda>)
        4    0.000    0.000    0.000    0.000 {method 'items' of 'dict' objects}
        3    0.000    0.000    0.000    0.000 {method 'format' of 'str' objects}
        2    0.000    0.000    0.000    0.000 table.py:1406(where)
        2    0.000    0.000    0.000    0.000 leaf.py:421(_process_range_read)
        2    0.000    0.000    0.000    0.000 {method 'encode' of 'str' objects}
        2    0.000    0.000    0.000    0.000 {method 'indices' of 'slice' objects}
        2    0.000    0.000    0.000    0.000 {built-in method iter}
        2    0.000    0.000    0.000    0.000 table.py:1503(_where)
        2    0.000    0.000    0.000    0.000 {method 'update' of 'set' objects}
        2    0.000    0.000    0.000    0.000 leaf.py:403(_process_range)
        2    0.000    0.000    0.000    0.000 rows.py:126(<setcomp>)
        1    0.000    0.000    0.000    0.000 {method 'disable' of '_lsprof.Profiler' objects}
        1    0.000    0.000    0.002    0.002 rows.py:103(get_annotations_from_samples_by_calls_qual__in_kernel)


