         1031 function calls (968 primitive calls) in 0.023 seconds

   Ordered by: call count

   ncalls  tottime  percall  cumtime  percall filename:lineno(function)
       78    0.000    0.000    0.000    0.000 weakref.py:130(__getitem__)
    72/36    0.000    0.000    0.000    0.000 necompiler.py:99(postorderWalk)
       41    0.000    0.000    0.000    0.000 {built-in method hasattr}
       40    0.000    0.000    0.000    0.000 {method 'append' of 'list' objects}
       39    0.000    0.000    0.000    0.000 {method 'pop' of 'tables.lrucacheextension.NodeCache' objects}
       39    0.000    0.000    0.000    0.000 weakref.py:145(__contains__)
       39    0.000    0.000    0.000    0.000 file.py:408(get_node)
       39    0.000    0.000    0.000    0.000 file.py:1550(_get_node)
       39    0.000    0.000    0.000    0.000 file.py:382(register_node)
       39    0.000    0.000    0.000    0.000 file.py:395(cache_node)
       38    0.000    0.000    0.000    0.000 file.py:2129(_check_open)
       37    0.000    0.000    0.000    0.000 {tables.utilsextension.get_nested_field}
       37    0.000    0.000    0.001    0.000 fromnumeric.py:1738(sometrue)
       37    0.000    0.000    0.000    0.000 {method 'reduce' of 'numpy.ufunc' objects}
       37    0.000    0.000    0.000    0.000 {built-in method array}
       37    0.000    0.000    0.000    0.000 {method 'any' of 'numpy.ndarray' objects}
       37    0.000    0.000    0.000    0.000 numeric.py:464(asanyarray)
       37    0.000    0.000    0.000    0.000 _methods.py:37(_any)
       37    0.007    0.000    0.007    0.000 conditions.py:437(call_on_recarr)
       14    0.000    0.000    0.000    0.000 necompiler.py:105(allOf)
       14    0.000    0.000    0.000    0.000 {built-in method isinstance}
     10/3    0.000    0.000    0.000    0.000 necompiler.py:123(sigPerms)
      9/3    0.000    0.000    0.000    0.000 {built-in method hash}
      9/3    0.000    0.000    0.000    0.000 necompiler.py:81(__hash__)
        7    0.000    0.000    0.000    0.000 necompiler.py:60(__init__)
        5    0.000    0.000    0.000    0.000 {method 'get' of 'dict' objects}
        5    0.000    0.000    0.000    0.000 {method 'encode' of 'str' objects}
        5    0.000    0.000    0.000    0.000 {built-in method len}
        4    0.000    0.000    0.000    0.000 utils.py:240(newfget)
        3    0.000    0.000    0.000    0.000 {method 'pop' of 'list' objects}
        3    0.000    0.000    0.000    0.000 expressions.py:113(isConstant)
        3    0.000    0.000    0.000    0.000 necompiler.py:151(<genexpr>)
        3    0.000    0.000    0.000    0.000 {method 'update' of 'dict' objects}
      3/1    0.000    0.000    0.000    0.000 necompiler.py:120(<listcomp>)
      3/1    0.000    0.000    0.000    0.000 necompiler.py:182(<listcomp>)
        3    0.000    0.000    0.000    0.000 necompiler.py:196(__init__)
      3/1    0.000    0.000    0.000    0.000 necompiler.py:112(expressionToAST)
        3    0.000    0.000    0.000    0.000 expressions.py:397(__init__)
        3    0.000    0.000    0.000    0.000 necompiler.py:441(nToChr)
      3/1    0.000    0.000    0.000    0.000 necompiler.py:142(typeCompileAst)
        3    0.000    0.000    0.000    0.000 necompiler.py:96(typecode)
        2    0.000    0.000    0.000    0.000 necompiler.py:363(<genexpr>)
        2    0.000    0.000    0.000    0.000 {method 'extend' of 'list' objects}
        2    0.000    0.000    0.000    0.000 {method 'index' of 'str' objects}
        2    0.000    0.000    0.000    0.000 {built-in method _getframe}
        2    0.000    0.000    0.000    0.000 {method 'join' of 'str' objects}
        2    0.000    0.000    0.000    0.000 conditions.py:332(__init__)
        2    0.000    0.000    0.000    0.000 {method 'keys' of 'dict' objects}
        2    0.000    0.000    0.000    0.000 {method 'startswith' of 'bytes' objects}
        2    0.000    0.000    0.000    0.000 necompiler.py:365(<genexpr>)
        2    0.000    0.000    0.000    0.000 necompiler.py:552(<genexpr>)
        2    0.000    0.000    0.000    0.000 {method 'pop' of 'dict' objects}
        2    0.000    0.000    0.000    0.000 {built-in method compile}
        2    0.000    0.000    0.000    0.000 expressions.py:77(set_new_context)
        2    0.000    0.000    0.000    0.000 necompiler.py:93(key)
        2    0.000    0.000    0.000    0.000 {built-in method time}
        2    0.000    0.000    0.000    0.000 necompiler.py:317(assignLeafRegisters)
        2    0.000    0.000    0.000    0.000 {method 'join' of 'bytes' objects}
        2    0.000    0.000    0.000    0.000 {method 'format' of 'str' objects}
        2    0.000    0.000    0.000    0.000 necompiler.py:391(setOrderedRegisterNumbers)
        2    0.000    0.000    0.000    0.000 conditions.py:101(get_cmp)
        1    0.000    0.000    0.000    0.000 necompiler.py:303(<listcomp>)
        1    0.000    0.000    0.000    0.000 {method 'items' of 'dict' objects}
        1    0.000    0.000    0.000    0.000 table.py:1331(_compile_condition)
        1    0.000    0.000    0.000    0.000 {built-in method chr}
        1    0.013    0.013    0.022    0.022 interface.py:526(<setcomp>)
        1    0.000    0.000    0.000    0.000 expressions.py:74(get_current_context)
        1    0.000    0.000    0.000    0.000 necompiler.py:362(<listcomp>)
        1    0.000    0.000    0.000    0.000 table.py:1298(_get_condition_key)
        1    0.000    0.000    0.001    0.001 table.py:1406(where)
        1    0.000    0.000    0.000    0.000 necompiler.py:423(convertASTtoThreeAddrForm)
        1    0.000    0.000    0.000    0.000 necompiler.py:484(getContext)
        1    0.000    0.000    0.000    0.000 conditions.py:347(with_replaced_vars)
        1    0.000    0.000    0.000    0.000 necompiler.py:474(<listcomp>)
        1    0.000    0.000    0.000    0.000 conditions.py:373(_get_variable_names)
        1    0.000    0.000    0.000    0.000 {method 'sort' of 'list' objects}
        1    0.000    0.000    0.000    0.000 conditions.py:283(_get_idx_expr)
        1    0.000    0.000    0.000    0.000 necompiler.py:461(toString)
        1    0.000    0.000    0.000    0.000 necompiler.py:302(<listcomp>)
        1    0.000    0.000    0.000    0.000 conditions.py:422(<listcomp>)
        1    0.000    0.000    0.000    0.000 table.py:958(_get_container)
        1    0.000    0.000    0.000    0.000 expressions.py:511(__init__)
        1    0.000    0.000    0.000    0.000 {method 'copy' of 'dict' objects}
        1    0.000    0.000    0.000    0.000 conditions.py:387(compile_condition)
        1    0.000    0.000    0.000    0.000 necompiler.py:432(<listcomp>)
        1    0.000    0.000    0.000    0.000 conditions.py:67(newfunc)
        1    0.000    0.000    0.023    0.023 interface.py:512(get_variant_entry_by_id_set)
        1    0.000    0.000    0.000    0.000 leaf.py:147(<lambda>)
        1    0.000    0.000    0.000    0.000 necompiler.py:551(<listcomp>)
        1    0.000    0.000    0.000    0.000 necompiler.py:358(optimizeTemporariesAllocation)
        1    0.000    0.000    0.000    0.000 expressions.py:183(operation)
        1    0.000    0.000    0.000    0.000 necompiler.py:329(assignBranchRegisters)
        1    0.000    0.000    0.000    0.000 necompiler.py:285(<listcomp>)
        1    0.000    0.000    0.000    0.000 conditions.py:110(is_indexed_boolean)
        1    0.000    0.000    0.000    0.000 leaf.py:403(_process_range)
        1    0.000    0.000    0.000    0.000 utils.py:431(__setitem__)
        1    0.000    0.000    0.000    0.000 expressions.py:135(bestConstantType)
        1    0.000    0.000    0.000    0.000 conditions.py:167(_get_idx_expr_recurse)
        1    0.000    0.000    0.000    0.000 necompiler.py:296(getConstants)
        1    0.000    0.000    0.000    0.000 {built-in method print}
        1    0.000    0.000    0.000    0.000 necompiler.py:454(quadrupleToString)
        1    0.000    0.000    0.000    0.000 expressions.py:173(getKind)
        1    0.000    0.000    0.000    0.000 table.py:3417(_getshape)
        1    0.000    0.000    0.000    0.000 {built-in method getattr}
        1    0.000    0.000    0.000    0.000 {method '_iter' of 'tables.tableextension.Row' objects}
        1    0.000    0.000    0.000    0.000 expressions.py:485(__init__)
        1    0.000    0.000    0.000    0.000 expressions.py:105(allConstantNodes)
        1    0.000    0.000    0.000    0.000 necompiler.py:436(compileThreeAddrForm)
        1    0.000    0.000    0.000    0.000 necompiler.py:336(collapseDuplicateSubtrees)
        1    0.000    0.000    0.000    0.000 leaf.py:421(_process_range_read)
        1    0.000    0.000    0.000    0.000 <expr>:1(<module>)
        1    0.000    0.000    0.000    0.000 necompiler.py:227(stringToExpression)
        1    0.000    0.000    0.000    0.000 table.py:1224(<listcomp>)
        1    0.000    0.000    0.000    0.000 expressions.py:90(func)
        1    0.000    0.000    0.000    0.000 necompiler.py:508(<listcomp>)
        1    0.000    0.000    0.000    0.000 table.py:1535(<listcomp>)
        1    0.000    0.000    0.001    0.001 table.py:1503(_where)
        1    0.000    0.000    0.000    0.000 necompiler.py:557(NumExpr)
        1    0.000    0.000    0.000    0.000 {method 'intersection' of 'set' objects}
        1    0.000    0.000    0.000    0.000 {built-in method empty}
        1    0.000    0.000    0.000    0.000 {method 'indices' of 'slice' objects}
        1    0.000    0.000    0.000    0.000 table.py:3393(_gettable)
        1    0.000    0.000    0.000    0.000 necompiler.py:267(getInputOrder)
        1    0.000    0.000    0.000    0.000 necompiler.py:376(<listcomp>)
        1    0.000    0.000    0.000    0.000 necompiler.py:399(setRegisterNumbersForTemporaries)
        1    0.000    0.000    0.000    0.000 table.py:1192(_required_expr_vars)
        1    0.000    0.000    0.000    0.000 necompiler.py:504(precompile)
        1    0.000    0.000    0.000    0.000 conditions.py:81(_get_indexable_cmp)
        1    0.000    0.000    0.000    0.000 expressions.py:528(__init__)
        1    0.000    0.000    0.000    0.000 conditions.py:193(fix_invert)
        1    0.000    0.000    0.000    0.000 {built-in method eval}
        1    0.000    0.000    0.000    0.000 necompiler.py:289(convertConstantToKind)
        1    0.000    0.000    0.000    0.000 {method 'disable' of '_lsprof.Profiler' objects}
        1    0.000    0.000    0.000    0.000 necompiler.py:263(isReduction)
        1    0.000    0.000    0.000    0.000 utils.py:426(get)


