         4643 function calls (2889 primitive calls) in 0.166 seconds

   Ordered by: call count

   ncalls  tottime  percall  cumtime  percall filename:lineno(function)
 1080/252    0.000    0.000    0.000    0.000 necompiler.py:99(postorderWalk)
   436/56    0.000    0.000    0.000    0.000 necompiler.py:81(__hash__)
   436/56    0.000    0.000    0.000    0.000 {built-in method hash}
      179    0.000    0.000    0.000    0.000 {built-in method hasattr}
      165    0.000    0.000    0.000    0.000 {method 'append' of 'list' objects}
      161    0.000    0.000    0.000    0.000 {tables.utilsextension.get_nested_field}
      114    0.000    0.000    0.000    0.000 weakref.py:124(__getitem__)
       98    0.000    0.000    0.000    0.000 {built-in method isinstance}
    80/26    0.000    0.000    0.000    0.000 necompiler.py:123(sigPerms)
       78    0.000    0.000    0.000    0.000 necompiler.py:105(allOf)
       57    0.000    0.000    0.000    0.000 weakref.py:139(__contains__)
       57    0.000    0.000    0.000    0.000 file.py:382(register_node)
       57    0.000    0.000    0.001    0.000 file.py:408(get_node)
       57    0.000    0.000    0.000    0.000 file.py:395(cache_node)
       57    0.000    0.000    0.001    0.000 file.py:1550(_get_node)
       57    0.000    0.000    0.000    0.000 {method 'pop' of 'tables.lrucacheextension.NodeCache' objects}
       54    0.000    0.000    0.000    0.000 necompiler.py:60(__init__)
       51    0.000    0.000    0.000    0.000 file.py:2129(_check_open)
       49    0.000    0.000    0.001    0.000 fromnumeric.py:1738(sometrue)
       49    0.000    0.000    0.001    0.000 {method 'any' of 'numpy.ndarray' objects}
       49    0.000    0.000    0.001    0.000 _methods.py:37(_any)
       49    0.000    0.000    0.000    0.000 {built-in method array}
       49    0.000    0.000    0.000    0.000 numeric.py:464(asanyarray)
       49    0.013    0.000    0.013    0.000 conditions.py:437(call_on_recarr)
       49    0.001    0.000    0.001    0.000 {method 'reduce' of 'numpy.ufunc' objects}
       38    0.000    0.000    0.000    0.000 necompiler.py:96(typecode)
       36    0.000    0.000    0.000    0.000 necompiler.py:151(<genexpr>)
       36    0.000    0.000    0.000    0.000 necompiler.py:441(nToChr)
       34    0.000    0.000    0.000    0.000 {method 'encode' of 'str' objects}
     26/2    0.000    0.000    0.000    0.000 necompiler.py:112(expressionToAST)
       26    0.000    0.000    0.000    0.000 expressions.py:397(__init__)
       26    0.000    0.000    0.000    0.000 conditions.py:81(_get_indexable_cmp)
       26    0.000    0.000    0.000    0.000 necompiler.py:196(__init__)
     26/2    0.000    0.000    0.000    0.000 necompiler.py:182(<listcomp>)
     26/2    0.000    0.000    0.000    0.000 necompiler.py:142(typeCompileAst)
       26    0.000    0.000    0.000    0.000 {method 'pop' of 'list' objects}
       26    0.000    0.000    0.000    0.000 conditions.py:110(is_indexed_boolean)
       26    0.000    0.000    0.000    0.000 conditions.py:67(newfunc)
       26    0.000    0.000    0.000    0.000 expressions.py:113(isConstant)
     26/2    0.000    0.000    0.000    0.000 necompiler.py:120(<listcomp>)
       24    0.000    0.000    0.000    0.000 conditions.py:101(get_cmp)
    22/18    0.000    0.000    0.000    0.000 utils.py:240(newfget)
       21    0.000    0.000    0.000    0.000 {built-in method len}
       20    0.000    0.000    0.000    0.000 {method 'extend' of 'list' objects}
       20    0.000    0.000    0.000    0.000 {method 'add' of 'set' objects}
       18    0.000    0.000    0.000    0.000 {method 'get' of 'dict' objects}
       16    0.000    0.000    0.000    0.000 {method 'index' of 'str' objects}
     14/2    0.000    0.000    0.000    0.000 conditions.py:167(_get_idx_expr_recurse)
       14    0.000    0.000    0.000    0.000 necompiler.py:365(<genexpr>)
       14    0.000    0.000    0.000    0.000 necompiler.py:363(<genexpr>)
       14    0.000    0.000    0.000    0.000 {method 'join' of 'bytes' objects}
       14    0.000    0.000    0.000    0.000 {method 'join' of 'str' objects}
       14    0.000    0.000    0.000    0.000 necompiler.py:93(key)
       14    0.000    0.000    0.000    0.000 conditions.py:193(fix_invert)
       12    0.000    0.000    0.000    0.000 {built-in method chr}
       12    0.000    0.000    0.000    0.000 expressions.py:90(func)
       12    0.000    0.000    0.000    0.000 expressions.py:183(operation)
       12    0.000    0.000    0.000    0.000 expressions.py:105(allConstantNodes)
       12    0.000    0.000    0.000    0.000 expressions.py:528(__init__)
       12    0.000    0.000    0.000    0.000 {built-in method print}
       12    0.000    0.000    0.000    0.000 necompiler.py:461(toString)
       12    0.000    0.000    0.000    0.000 necompiler.py:454(quadrupleToString)
       10    0.000    0.000    0.000    0.000 {method 'discard' of 'set' objects}
        8    0.000    0.000    0.000    0.000 necompiler.py:289(convertConstantToKind)
        8    0.000    0.000    0.000    0.000 necompiler.py:552(<genexpr>)
        8    0.000    0.000    0.000    0.000 expressions.py:173(getKind)
        8    0.000    0.000    0.000    0.000 expressions.py:135(bestConstantType)
        8    0.000    0.000    0.000    0.000 {method 'pop' of 'set' objects}
        8    0.000    0.000    0.000    0.000 expressions.py:511(__init__)
        7    0.000    0.000    0.000    0.000 {method 'format' of 'str' objects}
        6    0.000    0.000    0.000    0.000 table.py:958(_get_container)
        6    0.000    0.000    0.000    0.000 {built-in method empty}
        6    0.000    0.000    0.000    0.000 {method 'update' of 'dict' objects}
        6    0.000    0.000    0.000    0.000 table.py:3393(_gettable)
        6    0.000    0.000    0.000    0.000 expressions.py:485(__init__)
        6    0.000    0.000    0.000    0.000 {method 'items' of 'dict' objects}
        6    0.000    0.000    0.000    0.000 table.py:3379(dtype)
        6    0.000    0.000    0.000    0.000 table.py:3417(_getshape)
        4    0.000    0.000    0.000    0.000 {method 'keys' of 'dict' objects}
        4    0.000    0.000    0.000    0.000 {built-in method compile}
        4    0.000    0.000    0.000    0.000 expressions.py:77(set_new_context)
        4    0.000    0.000    0.000    0.000 necompiler.py:317(assignLeafRegisters)
        4    0.000    0.000    0.000    0.000 {built-in method _getframe}
        4    0.000    0.000    0.000    0.000 {method 'pop' of 'dict' objects}
        4    0.000    0.000    0.000    0.000 {method 'startswith' of 'bytes' objects}
        4    0.000    0.000    0.000    0.000 {built-in method getattr}
        4    0.000    0.000    0.000    0.000 conditions.py:332(__init__)
        4    0.000    0.000    0.000    0.000 leaf.py:147(<lambda>)
        4    0.000    0.000    0.000    0.000 necompiler.py:391(setOrderedRegisterNumbers)
        3    0.000    0.000    0.000    0.000 {method 'values' of 'dict' objects}
        2    0.000    0.000    0.000    0.000 necompiler.py:285(<listcomp>)
        2    0.000    0.000    0.002    0.001 necompiler.py:557(NumExpr)
        2    0.000    0.000    0.000    0.000 utils.py:426(get)
        2    0.000    0.000    0.000    0.000 necompiler.py:423(convertASTtoThreeAddrForm)
        2    0.000    0.000    0.002    0.001 necompiler.py:504(precompile)
        2    0.000    0.000    0.002    0.001 conditions.py:387(compile_condition)
        2    0.000    0.000    0.000    0.000 necompiler.py:267(getInputOrder)
        2    0.000    0.000    0.000    0.000 necompiler.py:362(<listcomp>)
        2    0.000    0.000    0.000    0.000 necompiler.py:263(isReduction)
        2    0.000    0.000    0.000    0.000 necompiler.py:302(<listcomp>)
        2    0.000    0.000    0.000    0.000 utils.py:431(__setitem__)
        2    0.000    0.000    0.002    0.001 table.py:1331(_compile_condition)
        2    0.000    0.000    0.000    0.000 {method 'sort' of 'list' objects}
        2    0.000    0.000    0.000    0.000 necompiler.py:508(<listcomp>)
        2    0.000    0.000    0.000    0.000 {method 'indices' of 'slice' objects}
        2    0.000    0.000    0.000    0.000 table.py:1535(<listcomp>)
        2    0.000    0.000    0.000    0.000 necompiler.py:336(collapseDuplicateSubtrees)
        2    0.000    0.000    0.000    0.000 conditions.py:422(<listcomp>)
        2    0.000    0.000    0.000    0.000 table.py:1224(<listcomp>)
        2    0.000    0.000    0.000    0.000 {built-in method eval}
        2    0.000    0.000    0.000    0.000 conditions.py:347(with_replaced_vars)
        2    0.000    0.000    0.000    0.000 necompiler.py:376(<listcomp>)
        2    0.148    0.074    0.163    0.082 interfaceGlobalVariants.py:40(<listcomp>)
        2    0.000    0.000    0.000    0.000 necompiler.py:303(<listcomp>)
        2    0.000    0.000    0.000    0.000 necompiler.py:474(<listcomp>)
        2    0.000    0.000    0.000    0.000 {method 'intersection' of 'set' objects}
        2    0.000    0.000    0.000    0.000 leaf.py:421(_process_range_read)
        2    0.000    0.000    0.000    0.000 conditions.py:283(_get_idx_expr)
        2    0.000    0.000    0.000    0.000 necompiler.py:296(getConstants)
        2    0.000    0.000    0.003    0.001 table.py:1406(where)
        2    0.000    0.000    0.000    0.000 table.py:1192(_required_expr_vars)
        2    0.000    0.000    0.000    0.000 necompiler.py:358(optimizeTemporariesAllocation)
        2    0.000    0.000    0.000    0.000 necompiler.py:399(setRegisterNumbersForTemporaries)
        2    0.000    0.000    0.000    0.000 necompiler.py:484(getContext)
        2    0.000    0.000    0.000    0.000 necompiler.py:329(assignBranchRegisters)
        2    0.000    0.000    0.000    0.000 necompiler.py:551(<listcomp>)
        2    0.000    0.000    0.000    0.000 table.py:631(_v_wdflts)
        2    0.000    0.000    0.000    0.000 {method 'copy' of 'dict' objects}
        2    0.000    0.000    0.000    0.000 table.py:594(row)
        2    0.000    0.000    0.000    0.000 expressions.py:74(get_current_context)
        2    0.000    0.000    0.000    0.000 necompiler.py:432(<listcomp>)
        2    0.000    0.000    0.000    0.000 conditions.py:373(_get_variable_names)
        2    0.000    0.000    0.000    0.000 table.py:1298(_get_condition_key)
        2    0.000    0.000    0.000    0.000 necompiler.py:436(compileThreeAddrForm)
        2    0.000    0.000    0.000    0.000 leaf.py:403(_process_range)
        2    0.000    0.000    0.000    0.000 {method '_iter' of 'tables.tableextension.Row' objects}
        2    0.000    0.000    0.000    0.000 {built-in method time}
        2    0.000    0.000    0.000    0.000 necompiler.py:227(stringToExpression)
        2    0.000    0.000    0.003    0.001 table.py:1503(_where)
        1    0.000    0.000    0.000    0.000 <expr>:1(<module>)
        1    0.000    0.000    0.000    0.000 {method 'disable' of '_lsprof.Profiler' objects}
        1    0.000    0.000    0.166    0.166 interfaceGlobalVariants.py:15(get_variant_from_params_dict)


