True annotations_table,indexed
True annotations_table,autoindex
True calls_table,indexed
True calls_table,autoindex
True samples_table,indexed
True samples_table,autoindex
True variants_snp_table,indexed
True variants_snp_table,autoindex
True variants_nosnp_table,indexed
True variants_nosnp_table,autoindex
Abfragezeit:  0,11186933517456055
Abfragezeit:  0,1101999282836914
Abfragezeit:  0,11010575294494629
Abfragezeit:  0,1103658676147461
Abfragezeit:  0,110107421875
Abfragezeit:  0,11073637008666992
Abfragezeit:  0,11028575897216797
Abfragezeit:  0,11017513275146484
Abfragezeit:  0,11031150817871094
Abfragezeit:  0,11009883880615234
