True annotations_table.indexed
True annotations_table.autoindex
True calls_table.indexed
True calls_table.autoindex
True samples_table.indexed
True samples_table.autoindex
True variants_snp_table.indexed
True variants_snp_table.autoindex
True variants_nosnp_table.indexed
True variants_nosnp_table.autoindex
Abfragezeit:  1.0928239822387695
Abfragezeit:  1.0851476192474365
Abfragezeit:  1.0704314708709717
Abfragezeit:  1.0631413459777832
Abfragezeit:  1.0857017040252686
Abfragezeit:  1.0485985279083252
Abfragezeit:  1.137303352355957
Abfragezeit:  1.0449249744415283
Abfragezeit:  1.0656850337982178
Abfragezeit:  1.0768241882324219
Abfragezeit:  1.0743412971496582
Abfragezeit:  1.0865354537963867
Abfragezeit:  1.0698859691619873
Abfragezeit:  1.0632879734039307
Abfragezeit:  1.080906629562378
Abfragezeit:  1.0511023998260498
Abfragezeit:  1.0664355754852295
Abfragezeit:  1.049187421798706
Abfragezeit:  1.4941272735595703
Abfragezeit:  1.074167251586914
