True annotations_table,indexed
True annotations_table,autoindex
True calls_table,indexed
True calls_table,autoindex
True samples_table,indexed
True samples_table,autoindex
True variants_snp_table,indexed
True variants_snp_table,autoindex
True variants_nosnp_table,indexed
True variants_nosnp_table,autoindex
Abfragezeit Sets:  0,006434202194213867
Abfragezeit Sets:  0,0034961700439453125
Abfragezeit Sets:  0,002964496612548828
Abfragezeit Sets:  0,002871274948120117
Abfragezeit Sets:  0,00497746467590332
Abfragezeit Sets:  0,0025348663330078125
Abfragezeit Sets:  0,0025436878204345703
Abfragezeit Sets:  0,00263214111328125
Abfragezeit Sets:  0,002699613571166992
Abfragezeit Sets:  0,002382040023803711
Abfragezeit List:  0,0007045269012451172
Abfragezeit List:  0,0006575584411621094
Abfragezeit List:  0,0006518363952636719
Abfragezeit List:  0,0006508827209472656
Abfragezeit List:  0,0006504058837890625
Abfragezeit List:  0,0006501674652099609
Abfragezeit List:  0,0006511211395263672
Abfragezeit List:  0,0006453990936279297
Abfragezeit List:  0,000644683837890625
Abfragezeit List:  0,0006439685821533203
Abfragezeit NpArray:  9,465217590332031e-05
Abfragezeit NpArray:  7,176399230957031e-05
Abfragezeit NpArray:  6,914138793945312e-05
Abfragezeit NpArray:  6,771087646484375e-05
Abfragezeit NpArray:  6,699562072753906e-05
Abfragezeit NpArray:  6,628036499023438e-05
Abfragezeit NpArray:  6,604194641113281e-05
Abfragezeit NpArray:  6,604194641113281e-05
Abfragezeit NpArray:  6,699562072753906e-05
Abfragezeit NpArray:  6,604194641113281e-05
