True annotations_table.indexed
True annotations_table.autoindex
True calls_table.indexed
True calls_table.autoindex
True samples_table.indexed
True samples_table.autoindex
True variants_snp_table.indexed
True variants_snp_table.autoindex
True variants_nosnp_table.indexed
True variants_nosnp_table.autoindex
Abfragezeit:  9.982962608337402
Abfragezeit:  10.924132823944092
Abfragezeit:  11.088930130004883
Abfragezeit:  10.674840688705444
Abfragezeit:  11.037766218185425
Abfragezeit:  10.697808980941772
Abfragezeit:  10.822331190109253
Abfragezeit:  11.091731786727905
Abfragezeit:  10.961864709854126
Abfragezeit:  10.90132451057434
