True annotations_table.indexed
True annotations_table.autoindex
True calls_table.indexed
True calls_table.autoindex
True samples_table.indexed
True samples_table.autoindex
True variants_snp_table.indexed
True variants_snp_table.autoindex
True variants_nosnp_table.indexed
True variants_nosnp_table.autoindex
Processing Time: 0.4134089946746826
Abfragezeit:  0.4240114688873291
Processing Time: 0.4015183448791504
Abfragezeit:  0.40922117233276367
Processing Time: 0.3711230754852295
Abfragezeit:  0.3784902095794678
Processing Time: 0.17598509788513184
Abfragezeit:  0.1830909252166748
Processing Time: 0.3974452018737793
Abfragezeit:  0.40454959869384766
Processing Time: 0.4317896366119385
Abfragezeit:  0.4388909339904785
Processing Time: 0.018822908401489258
Abfragezeit:  0.026287078857421875
Processing Time: 0.2637062072753906
Abfragezeit:  0.27181220054626465
Processing Time: 0.37056469917297363
Abfragezeit:  0.3778834342956543
Processing Time: 0.36594080924987793
Abfragezeit:  0.3731529712677002
