False annotations_table.indexed
True annotations_table.autoindex
False calls_table.indexed
True calls_table.autoindex
False samples_table.indexed
True samples_table.autoindex
False variants_snp_table.indexed
True variants_snp_table.autoindex
False variants_nosnp_table.indexed
True variants_nosnp_table.autoindex
Processing Time: 0.029114961624145508
Processing Time: 0.20569491386413574
Abfragezeit:  0.20721769332885742
[[107348, b'12', 25957237, b'T', b'C', 1, 0]]
Processing Time: 0.08807849884033203
Abfragezeit:  0.08942484855651855
[[214696, b'05', 110082153, b'T', b'C', 1, 0]]
Processing Time: 0.08725857734680176
Abfragezeit:  0.08859038352966309
[[322045, b'08', 17511925, b'C', b'A', 0, 1]]
Processing Time: 0.08663725852966309
Abfragezeit:  0.08795833587646484
[[429393, b'16', 86609976, b'C', b'T', 1, 0]]
Processing Time: 0.08682036399841309
Abfragezeit:  0.0881497859954834
[[536741, b'05', 10481418, b'C', b'T', 1, 0]]
Processing Time: 0.08702564239501953
Abfragezeit:  0.08835124969482422
[[644089, b'01', 166636006, b'C', b'T', 1, 0]]
Processing Time: 0.08668780326843262
Abfragezeit:  0.08801507949829102
[[751437, b'18', 77210152, b'G', b'C', 0, 1]]
Processing Time: 0.0866403579711914
Abfragezeit:  0.08797407150268555
[[858786, b'02', 219152138, b'A', b'T', 0, 1]]
Processing Time: 0.08727145195007324
Abfragezeit:  0.08859992027282715
[[966134, b'01', 28203156, b'A', b'G', 1, 0]]
Processing Time: 0.08726310729980469
Abfragezeit:  0.08858752250671387
[[1073480, b'Y', 7645537, b'G', b'T', 0, 1]]
