False annotations_table.indexed
True annotations_table.autoindex
False calls_table.indexed
True calls_table.autoindex
False samples_table.indexed
True samples_table.autoindex
False variants_snp_table.indexed
True variants_snp_table.autoindex
False variants_nosnp_table.indexed
True variants_nosnp_table.autoindex
Processing Time: 0.02807903289794922
Processing Time: 0.11399102210998535
Abfragezeit:  0.11570382118225098
1073482
Processing Time: 0.11214137077331543
Abfragezeit:  0.11367130279541016
1073482
Processing Time: 0.11221671104431152
Abfragezeit:  0.11374187469482422
1073482
Processing Time: 0.1124114990234375
Abfragezeit:  0.11393451690673828
1073482
Processing Time: 0.11228275299072266
Abfragezeit:  0.11380553245544434
1073482
Processing Time: 0.11231708526611328
Abfragezeit:  0.11383461952209473
1073482
Processing Time: 0.11231160163879395
Abfragezeit:  0.11383581161499023
1073482
Processing Time: 0.11238312721252441
Abfragezeit:  0.11390328407287598
1073482
Processing Time: 0.11232614517211914
Abfragezeit:  0.11384773254394531
1073482
Processing Time: 0.11234545707702637
Abfragezeit:  0.1138606071472168
1073482
