True annotations_table,indexed
True annotations_table,autoindex
True calls_table,indexed
True calls_table,autoindex
True samples_table,indexed
True samples_table,autoindex
True variants_snp_table,indexed
True variants_snp_table,autoindex
True variants_nosnp_table,indexed
True variants_nosnp_table,autoindex
Abfragezeit:  2,3750429153442383
Abfragezeit:  0,45850086212158203
Abfragezeit:  2,371405601501465
Abfragezeit:  0,3736426830291748
Abfragezeit:  0,3858144283294678
Abfragezeit:  0,333636999130249
Abfragezeit:  0,23151898384094238
Abfragezeit:  0,255420446395874
Abfragezeit:  0,33377552032470703
Abfragezeit:  0,197434663772583
