         25377 function calls (24160 primitive calls) in 0.055 seconds

   Ordered by: call count

   ncalls  tottime  percall  cumtime  percall filename:lineno(function)
     3095    0.001    0.000    0.002    0.000 {built-in method isinstance}
     1120    0.000    0.000    0.000    0.000 {method 'append' of 'list' objects}
      945    0.000    0.000    0.000    0.000 {method 'startswith' of 'str' objects}
      834    0.000    0.000    0.000    0.000 weakref.py:124(__getitem__)
      642    0.001    0.000    0.007    0.000 attributeset.py:61(issysattrname)
      545    0.001    0.000    0.001    0.000 weakref.py:139(__contains__)
      510    0.001    0.000    0.001    0.000 {method 'pop' of 'tables.lrucacheextension.NodeCache' objects}
      499    0.000    0.000    0.000    0.000 {built-in method hasattr}
      491    0.000    0.000    0.001    0.000 description.py:674(_f_walk)
      483    0.000    0.000    0.000    0.000 {built-in method len}
    475/5    0.001    0.000    0.055    0.011 file.py:408(get_node)
    475/5    0.000    0.000    0.055    0.011 file.py:1550(_get_node)
      452    0.001    0.000    0.003    0.000 file.py:395(cache_node)
      452    0.001    0.000    0.002    0.000 file.py:382(register_node)
      428    0.000    0.000    0.000    0.000 {method 'get' of 'dict' objects}
      428    0.000    0.000    0.000    0.000 inspect.py:2143(name)
      413    0.000    0.000    0.000    0.000 {built-in method getattr}
      408    0.004    0.000    0.004    0.000 {method 'reduce' of 'numpy.ufunc' objects}
      403    0.000    0.000    0.001    0.000 attributeset.py:65(<listcomp>)
      403    0.001    0.000    0.005    0.000 fromnumeric.py:2259(prod)
      403    0.000    0.000    0.004    0.000 _methods.py:34(_prod)
      392    0.002    0.000    0.020    0.000 attributeset.py:282(__getattr__)
      370    0.000    0.000    0.000    0.000 group.py:843(__setattr__)
      367    0.009    0.000    0.009    0.000 {method '_g_getattr' of 'tables.hdf5extension.AttributeSet' objects}
      367    0.000    0.000    0.003    0.000 attributeset.py:193(_g_getnode)
      340    0.000    0.000    0.000    0.000 inspect.py:2147(default)
      277    0.000    0.000    0.000    0.000 inspect.py:2373(<genexpr>)
      277    0.000    0.000    0.000    0.000 {built-in method proxy}
      277    0.000    0.000    0.000    0.000 __init__.py:87(__iter__)
      277    0.000    0.000    0.000    0.000 _collections_abc.py:511(__iter__)
      224    0.000    0.000    0.000    0.000 {built-in method __new__ of type object at 0x1002044e0}
      214    0.000    0.000    0.000    0.000 {method 'isidentifier' of 'str' objects}
      214    0.000    0.000    0.000    0.000 atom.py:569(<genexpr>)
      214    0.000    0.000    0.000    0.000 __init__.py:62(__setitem__)
      214    0.000    0.000    0.000    0.000 inspect.py:2155(kind)
      214    0.000    0.000    0.000    0.000 inspect.py:2118(__init__)
      214    0.000    0.000    0.000    0.000 inspect.py:2151(annotation)
      186    0.000    0.000    0.000    0.000 path.py:122(join_path)
      186    0.000    0.000    0.000    0.000 {method 'endswith' of 'str' objects}
      176    0.000    0.000    0.000    0.000 {method 'rfind' of 'str' objects}
      151    0.000    0.000    0.000    0.000 {built-in method array}
      146    0.000    0.000    0.000    0.000 atom.py:135(<genexpr>)
      146    0.001    0.000    0.002    0.000 atom.py:489(__init__)
      146    0.000    0.000    0.000    0.000 atom.py:498(<genexpr>)
      146    0.000    0.000    0.001    0.000 atom.py:138(_normalize_default)
      146    0.001    0.000    0.001    0.000 atom.py:115(_normalize_shape)
      141    0.000    0.000    0.000    0.000 _weakrefset.py:70(__contains__)
      126    0.000    0.000    0.000    0.000 {built-in method callable}
      126    0.000    0.000    0.000    0.000 inspect.py:163(isfunction)
   126/63    0.000    0.000    0.004    0.000 inspect.py:1895(_signature_internal)
      119    0.000    0.000    0.003    0.000 group.py:394(_g_check_has_child)
      119    0.003    0.000    0.003    0.000 {method '_g_get_objinfo' of 'tables.hdf5extension.Group' objects}
      115    0.000    0.000    0.000    0.000 {method 'sort' of 'list' objects}
      113    0.000    0.000    0.000    0.000 path.py:154(split_path)
      108    0.000    0.000    0.000    0.000 {method 'pop' of 'list' objects}
      103    0.000    0.000    0.000    0.000 {method 'split' of 'str' objects}
       96    0.000    0.000    0.002    0.000 atom.py:654(__init__)
     93/5    0.000    0.000    0.055    0.011 group.py:1174(_g_load_child)
       90    0.000    0.000    0.000    0.000 {method 'match' of '_sre.SRE_Pattern' objects}
       85    0.000    0.000    0.020    0.000 utils.py:240(newfget)
       83    0.000    0.000    0.002    0.000 atom.py:405(from_kind)
       80    0.000    0.000    0.000    0.000 {method 'decode' of 'bytes' objects}
       73    0.000    0.000    0.000    0.000 table.py:107(_index_name_of)
       73    0.000    0.000    0.001    0.000 table.py:113(_index_pathname_of)
    72/19    0.000    0.000    0.047    0.002 file.py:1562(get_node)
    72/66    0.000    0.000    0.000    0.000 {built-in method issubclass}
       72    0.000    0.000    0.000    0.000 file.py:2129(_check_open)
       70    0.000    0.000    0.000    0.000 {method 'count' of 'str' objects}
       68    0.000    0.000    0.000    0.000 {method 'items' of 'dict' objects}
       68    0.000    0.000    0.000    0.000 table.py:3175(_g_col)
       68    0.000    0.000    0.022    0.000 file.py:2025(__contains__)
       66    0.000    0.000    0.000    0.000 node.py:339(_g_check_open)
       63    0.000    0.000    0.000    0.000 table.py:3436(__init__)
       63    0.000    0.000    0.000    0.000 copyreg.py:87(__newobj__)
       63    0.000    0.000    0.001    0.000 description.py:193(__init__)
       63    0.000    0.000    0.002    0.000 __init__.py:41(__init__)
       63    0.000    0.000    0.000    0.000 atom.py:317(prefix)
       63    0.000    0.000    0.000    0.000 description.py:609(join_paths)
       63    0.000    0.000    0.000    0.000 {method 'values' of 'mappingproxy' objects}
       63    0.000    0.000    0.006    0.000 atom.py:561(_get_init_args)
       63    0.000    0.000    0.002    0.000 _collections_abc.py:575(update)
       63    0.000    0.000    0.000    0.000 copy.py:272(_reconstruct)
       63    0.000    0.000    0.000    0.000 {method 'update' of 'dict' objects}
       63    0.000    0.000    0.000    0.000 _collections_abc.py:456(__init__)
       63    0.000    0.000    0.000    0.000 {method '__reduce_ex__' of 'object' objects}
       63    0.001    0.000    0.004    0.000 inspect.py:2379(from_function)
       63    0.000    0.000    0.000    0.000 abc.py:178(__instancecheck__)
       63    0.000    0.000    0.000    0.000 inspect.py:2468(return_annotation)
       63    0.000    0.000    0.000    0.000 {built-in method id}
       63    0.000    0.000    0.002    0.000 inspect.py:2328(__init__)
       63    0.000    0.000    0.000    0.000 {method 'pop' of 'dict' objects}
       63    0.001    0.000    0.006    0.000 inspect.py:943(getfullargspec)
       63    0.000    0.000    0.008    0.000 description.py:105(from_atom)
       63    0.000    0.000    0.000    0.000 _collections_abc.py:442(values)
       63    0.000    0.000    0.006    0.000 inspect.py:919(getargspec)
       63    0.000    0.000    0.001    0.000 copy.py:67(copy)
       63    0.000    0.000    0.001    0.000 table.py:120(_index_pathname_of_column)
       63    0.000    0.000    0.000    0.000 <string>:12(__new__)
       63    0.000    0.000    0.000    0.000 inspect.py:2464(parameters)
       63    0.000    0.000    0.000    0.000 atom.py:479(<lambda>)
       60    0.000    0.000    0.000    0.000 {method 'endswith' of 'bytes' objects}
       50    0.000    0.000    0.001    0.000 atom.py:595(__init__)
       40    0.000    0.000    0.000    0.000 leaf.py:147(<lambda>)
     35/5    0.000    0.000    0.054    0.011 node.py:200(__init__)
       35    0.000    0.000    0.000    0.000 node.py:846(_g_check_group)
       35    0.000    0.000    0.000    0.000 weakref.py:297(__init__)
       35    0.000    0.000    0.000    0.000 {method '_g_new' of 'tables.hdf5extension.AttributeSet' objects}
       35    0.000    0.000    0.000    0.000 weakref.py:149(__setitem__)
       35    0.000    0.000    0.000    0.000 {method '_g_list_attr' of 'tables.hdf5extension.AttributeSet' objects}
       35    0.000    0.000    0.020    0.001 node.py:163(_v_attrs)
       35    0.001    0.000    0.020    0.001 attributeset.py:200(__init__)
       35    0.000    0.000    0.000    0.000 weakref.py:292(__new__)
       35    0.000    0.000    0.001    0.000 node.py:352(_g_set_location)
    26/21    0.000    0.000    0.021    0.001 group.py:697(_f_get_child)
    26/21    0.000    0.000    0.021    0.001 group.py:825(__getattr__)
       25    0.000    0.000    0.000    0.000 leaf.py:188(_getmaindim)
       25    0.000    0.000    0.000    0.000 leaf.py:360(_calc_nrowsinbuf)
       25    0.000    0.000    0.000    0.000 {method '_g_new' of 'tables.hdf5extension.Leaf' objects}
       25    0.002    0.000    0.002    0.000 {method '_g_get_lchild_attr' of 'tables.hdf5extension.Group' objects}
       25    0.000    0.000    0.005    0.000 leaf.py:297(_g_post_init_hook)
     25/5    0.000    0.000    0.054    0.011 leaf.py:231(__init__)
       25    0.000    0.000    0.000    0.000 atom.py:590(<lambda>)
       25    0.000    0.000    0.002    0.000 group.py:306(_g_get_child_leaf_class)
       25    0.000    0.000    0.000    0.000 node.py:460(_g_post_init_hook)
       20    0.002    0.000    0.002    0.000 {method '_open_array' of 'tables.hdf5extension.Array' objects}
       20    0.000    0.000    0.002    0.000 array.py:232(_g_open)
       20    0.000    0.000    0.000    0.000 array.py:112(_getrowsize)
       20    0.000    0.000    0.008    0.000 carray.py:133(__init__)
       20    0.000    0.000    0.000    0.000 {built-in method empty}
       20    0.000    0.000    0.000    0.000 utils.py:40(correct_byteorder)
       20    0.000    0.000    0.000    0.000 atom.py:476(<lambda>)
       16    0.000    0.000    0.000    0.000 {method 'add' of 'set' objects}
       11    0.000    0.000    0.000    0.000 {built-in method print}
       10    0.000    0.000    0.000    0.000 {method '_g_new' of 'tables.hdf5extension.Node' objects}
       10    0.000    0.000    0.000    0.000 group.py:288(_g_get_child_group_class)
       10    0.000    0.000    0.018    0.002 group.py:207(__init__)
       10    0.000    0.000    0.000    0.000 {method '_g_open' of 'tables.hdf5extension.Group' objects}
       10    0.000    0.000    0.000    0.000 {method '_g_get_gchild_attr' of 'tables.hdf5extension.Group' objects}
       10    0.000    0.000    0.005    0.000 group.py:240(_g_post_init_hook)
       10    0.000    0.000    0.000    0.000 table.py:964(_get_type_col_names)
       10    0.000    0.000    0.000    0.000 attributeset.py:556(__contains__)
       10    0.000    0.000    0.000    0.000 table.py:967(<listcomp>)
       10    0.000    0.000    0.004    0.000 indexes.py:92(__init__)
       10    0.000    0.000    0.004    0.000 earray.py:137(__init__)
       10    0.000    0.000    0.000    0.000 group.py:482(_g_join)
       10    0.000    0.000    0.000    0.000 _weakrefset.py:58(__iter__)
       10    0.000    0.000    0.000    0.000 table.py:172(_table__getautoindex)
        9    0.000    0.000    0.000    0.000 filters.py:195(_unpack)
        9    0.000    0.000    0.000    0.000 filters.py:275(__init__)
        8    0.000    0.000    0.000    0.000 _weakrefset.py:16(__init__)
        8    0.000    0.000    0.000    0.000 _weakrefset.py:81(add)
        8    0.000    0.000    0.000    0.000 _weakrefset.py:52(_commit_removals)
        8    0.000    0.000    0.000    0.000 _weakrefset.py:26(__exit__)
        8    0.000    0.000    0.000    0.000 {method 'remove' of 'set' objects}
        8    0.000    0.000    0.000    0.000 _weakrefset.py:20(__enter__)
        8    0.000    0.000    0.000    0.000 {method '__subclasses__' of 'type' objects}
        8    0.000    0.000    0.000    0.000 _collections_abc.py:135(__subclasshook__)
      8/1    0.000    0.000    0.000    0.000 abc.py:194(__subclasscheck__)
        6    0.000    0.000    0.000    0.000 {method 'get' of 'mappingproxy' objects}
        6    0.000    0.000    0.000    0.000 copyreg.py:96(_slotnames)
        5    0.000    0.000    0.054    0.011 table.py:703(__init__)
        5    0.000    0.000    0.000    0.000 table.py:136(_index_pathname_of_)
        5    0.000    0.000    0.016    0.003 index.py:405(_g_post_init_hook)
        5    0.000    0.000    0.000    0.000 {method 'all' of 'numpy.ndarray' objects}
        5    0.001    0.000    0.001    0.000 {method '_g_read_slice' of 'tables.hdf5extension.Array' objects}
        5    0.000    0.000    0.030    0.006 table.py:1040(_g_open)
        5    0.000    0.000    0.000    0.000 leaf.py:403(_process_range)
        5    0.000    0.000    0.000    0.000 description.py:582(<listcomp>)
        5    0.000    0.000    0.000    0.000 utils.py:393(__init__)
        5    0.000    0.000    0.000    0.000 table.py:973(_get_enum_map)
        5    0.000    0.000    0.000    0.000 table.py:1120(<listcomp>)
        5    0.000    0.000    0.000    0.000 table.py:143(_index_pathname_of_column_)
        5    0.000    0.000    0.000    0.000 numeric.py:464(asanyarray)
        5    0.000    0.000    0.000    0.000 attributeset.py:265(_f_list)
        5    0.000    0.000    0.000    0.000 leaf.py:211(<lambda>)
        5    0.000    0.000    0.001    0.000 table.py:1099(_cache_description_data)
        5    0.000    0.000    0.000    0.000 index.py:173(_getdirty)
        5    0.000    0.000    0.000    0.000 description.py:512(<listcomp>)
        5    0.000    0.000    0.001    0.000 array.py:755(_read_slice)
        5    0.000    0.000    0.023    0.005 table.py:873(_g_post_init_hook)
        5    0.000    0.000    0.000    0.000 array.py:369(_interpret_indexing)
        5    0.000    0.000    0.000    0.000 description.py:606(<listcomp>)
        5    0.000    0.000    0.000    0.000 table.py:3114(__init__)
        5    0.000    0.000    0.000    0.000 table.py:3400(_getindex)
        5    0.001    0.000    0.002    0.000 description.py:440(__init__)
        5    0.000    0.000    0.055    0.011 fileHandler.py:52(get_table_from_file)
        5    0.000    0.000    0.000    0.000 {built-in method zeros}
        5    0.002    0.000    0.012    0.002 {method '_get_info' of 'tables.tableextension.Table' objects}
        5    0.000    0.000    0.000    0.000 description.py:596(_g_set_path_names)
        5    0.000    0.000    0.000    0.000 index.py:2199(_getauto)
        5    0.000    0.000    0.000    0.000 table.py:130(_index_name_of_)
        5    0.000    0.000    0.000    0.000 {method 'indices' of 'slice' objects}
        5    0.000    0.000    0.000    0.000 description.py:605(get_cols_in_order)
        5    0.000    0.000    0.000    0.000 _methods.py:40(_all)
        5    0.000    0.000    0.000    0.000 array.py:103(_getnrows)
        5    0.000    0.000    0.000    0.000 utils.py:49(is_idx)
        5    0.000    0.000    0.000    0.000 fromnumeric.py:1756(alltrue)
        5    0.000    0.000    0.001    0.000 array.py:624(__getitem__)
        5    0.000    0.000    0.000    0.000 table.py:614(<lambda>)
        5    0.000    0.000    0.017    0.003 index.py:333(__init__)
        5    0.000    0.000    0.000    0.000 description.py:576(_g_set_nested_names_descr)
        5    0.000    0.000    0.000    0.000 <frozen importlib._bootstrap>:2264(_handle_fromlist)
        2    0.000    0.000    0.000    0.000 {built-in method time}
        1    0.000    0.000    0.000    0.000 {method 'format' of 'str' objects}
        1    0.000    0.000    0.000    0.000 _weakrefset.py:36(__init__)
        1    0.000    0.000    0.055    0.055 interface.py:27(get_prepare)
        1    0.000    0.000    0.000    0.000 interface.py:57(create_indexes)
        1    0.000    0.000    0.000    0.000 {method 'disable' of '_lsprof.Profiler' objects}


