Using username "ikullack".
Last login: Thu Jun  4 18:28:33 2015 from f049000133.adsl.alicedsl.de
groups: cannot find name for group ID 11068
ikullack@russ:~$ cd /scratch/pytables/variante1chromid/                         ikullack@russ:/scratch/pytables/variante1chromid$ python pyt_exomate_one_info.py exomate_1.h5 --initall True
Processing Time: 0.058136701583862305
ikullack@russ:/scratch/pytables/variante1chromid$ python pyt_exomate_one.py exomate_1.h5 -vcf ../../vcf_files/*.vcf
Preprocesssing completed.
Processing Time: 60.01805400848389
Preprocesssing completed.
Processing Time: 56.36716341972351
Preprocesssing completed.
Processing Time: 52.67122173309326
Preprocesssing completed.
Processing Time: 42.363125801086426
Preprocesssing completed.
Processing Time: 51.62017774581909
Preprocesssing completed.
Processing Time: 42.28632736206055
Preprocesssing completed.
Processing Time: 49.57513356208801
Preprocesssing completed.
Processing Time: 46.21158981323242
Preprocesssing completed.
Processing Time: 48.851425886154175
Preprocessing quit before import ../../vcf_files/RB_E_015_B_temp.vcf.
Processing Time: 0.0004780292510986328
This VCF file was not correctly imported: ../../vcf_files/RB_E_015_B_temp.vcf
Preprocesssing completed.
Processing Time: 44.59740948677063
Preprocesssing completed.
Processing Time: 47.76749920845032
Preprocesssing completed.
Processing Time: 43.017250299453735
Preprocesssing completed.
Processing Time: 50.81964325904846
Preprocesssing completed.
Processing Time: 47.12337636947632
Preprocesssing completed.
Processing Time: 49.79047656059265
Preprocesssing completed.
Processing Time: 46.50029969215393
Preprocesssing completed.
Processing Time: 51.27737307548523
Preprocesssing completed.
Processing Time: 46.027801275253296
Preprocesssing completed.
Processing Time: 49.71040177345276
Preprocesssing completed.
Processing Time: 45.196449756622314
Preprocesssing completed.
Processing Time: 45.25779843330383
Preprocesssing completed.
Processing Time: 44.66612768173218
Preprocesssing completed.
Processing Time: 53.59877943992615
Preprocesssing completed.
Processing Time: 52.61259937286377
Preprocesssing completed.
Processing Time: 52.869802951812744
Preprocesssing completed.
Processing Time: 47.659236907958984
Preprocesssing completed.
Processing Time: 50.484185457229614
Preprocesssing completed.
Processing Time: 46.47484040260315
Preprocesssing completed.
Processing Time: 57.35991597175598
Preprocesssing completed.
Processing Time: 60.81798195838928
Preprocesssing completed.
Processing Time: 50.638373136520386
Preprocesssing completed.
Processing Time: 46.83130216598511
Preprocesssing completed.
Processing Time: 49.129164934158325
Preprocesssing completed.
Processing Time: 49.88211727142334
Preprocesssing completed.
Processing Time: 50.20283913612366
Preprocesssing completed.
Processing Time: 46.551543951034546
Preprocesssing completed.
Processing Time: 50.348480224609375
Preprocesssing completed.
Processing Time: 49.00925970077515
Preprocesssing completed.
Processing Time: 52.10647964477539
Preprocesssing completed.
Processing Time: 52.78163003921509
Preprocesssing completed.
Processing Time: 49.25410723686218
Preprocesssing completed.
Processing Time: 46.332695722579956
Preprocesssing completed.
Processing Time: 50.401015281677246
Preprocesssing completed.
Processing Time: 51.69206881523132
Preprocesssing completed.
Processing Time: 53.15246915817261
Preprocesssing completed.
Processing Time: 49.49826121330261
Preprocesssing completed.
Processing Time: 50.786805391311646
Preprocesssing completed.
Processing Time: 50.39153814315796
Preprocesssing completed.
Processing Time: 52.224175691604614
Preprocesssing completed.
Processing Time: 51.89240121841431
Preprocesssing completed.
Processing Time: 53.66810607910156
Preprocesssing completed.
Processing Time: 51.60007667541504
Preprocesssing completed.
Processing Time: 51.06190752983093
Preprocesssing completed.
Processing Time: 51.72989249229431
Preprocesssing completed.
Processing Time: 52.08525252342224
Preprocesssing completed.
Processing Time: 51.0428409576416
Preprocesssing completed.
Processing Time: 52.05551290512085
Preprocesssing completed.
Processing Time: 50.435322761535645
Preprocesssing completed.
Processing Time: 55.9326331615448
Preprocesssing completed.
Processing Time: 54.12676119804382
Processing Time: 54.15686106681824
ikullack@russ:/scratch/pytables/variante1chromid$
