False annotations_table.indexed
True annotations_table.autoindex
False calls_table.indexed
True calls_table.autoindex
False samples_table.indexed
True samples_table.autoindex
False variants_snp_table.indexed
True variants_snp_table.autoindex
False variants_nosnp_table.indexed
True variants_nosnp_table.autoindex
Processing Time: 0.03190159797668457
Processing Time: 0.20046377182006836
Abfragezeit:  0.20194101333618164
[[107348, b'12', 25957237, b'T', b'C', 1, 0]]
Processing Time: 0.08831024169921875
Abfragezeit:  0.08963751792907715
[[214696, b'05', 110082153, b'T', b'C', 1, 0]]
Processing Time: 0.08697891235351562
Abfragezeit:  0.08829402923583984
[[322045, b'08', 17511925, b'C', b'A', 0, 1]]
Processing Time: 0.08673477172851562
Abfragezeit:  0.08804464340209961
[[429393, b'16', 86609976, b'C', b'T', 1, 0]]
Processing Time: 0.09395051002502441
Abfragezeit:  0.09527111053466797
[[536741, b'05', 10481418, b'C', b'T', 1, 0]]
Processing Time: 0.08733868598937988
Abfragezeit:  0.08865666389465332
[[644089, b'01', 166636006, b'C', b'T', 1, 0]]
Processing Time: 0.0868082046508789
Abfragezeit:  0.08810949325561523
[[751437, b'18', 77210152, b'G', b'C', 0, 1]]
Processing Time: 0.08757448196411133
Abfragezeit:  0.0888969898223877
[[858786, b'02', 219152138, b'A', b'T', 0, 1]]
Processing Time: 0.0869588851928711
Abfragezeit:  0.0882728099822998
[[966134, b'01', 28203156, b'A', b'G', 1, 0]]
Processing Time: 0.08698391914367676
Abfragezeit:  0.08837652206420898
[[1073480, b'Y', 7645537, b'G', b'T', 0, 1]]
