False annotations_table.indexed
True annotations_table.autoindex
False calls_table.indexed
True calls_table.autoindex
False samples_table.indexed
True samples_table.autoindex
False variants_snp_table.indexed
True variants_snp_table.autoindex
False variants_nosnp_table.indexed
True variants_nosnp_table.autoindex
Processing Time: 0.032241106033325195
(733107, b'01', 142637034, b'C', b'T', 1, 0)
Processing Time: 0.5103199481964111
Processing Time: 0.038340091705322266
(24, 733107, 0, 57.17, 0, 3, 0, 3, 0.0, 19.06, 45.7, 0.0, nan, nan)
(29, 733107, 0, 3086.44, 1, 127, 61, 66, 4.446, 14.36, 59.91, 2.7142, -0.098, 0.409)
(48, 733107, 0, 161.02, 0, 3, 0, 3, 0.0, 32.2, 60.0, 0.0, nan, nan)
(49, 733107, 0, 88.84, 0, 3, 0, 3, 0.0, 17.77, 60.0, 0.0, nan, nan)
Processing Time: 1.566107988357544
(24, b'RB_E_023', -999999999999999999, b'B', -999999999999999999)
Processing Time: 0.0002582073211669922
(29, b'RB_E_025', -999999999999999999, b'T', -999999999999999999)
Processing Time: 0.00016117095947265625
(48, b'RB_E_036', -999999999999999999, b'B', -999999999999999999)
Processing Time: 0.00014209747314453125
(49, b'RB_E_036', -999999999999999999, b'T', -999999999999999999)
Processing Time: 0.0001289844512939453
[ (733107, b'01', 142637034, b'C', b'T', 1, 0, 24, 0, 57.17, 0, 3, 0, 3, 0.0, 19.06, 45.7, 0.0, nan, nan, b'RB_E_023', -999999999999999999, b'B', -999999999999999999)
 (733107, b'01', 142637034, b'C', b'T', 1, 0, 29, 0, 3086.44, 1, 127, 61, 66, 4.446, 14.36, 59.91, 2.7142, -0.098, 0.409, b'RB_E_025', -999999999999999999, b'T', -999999999999999999)
 (733107, b'01', 142637034, b'C', b'T', 1, 0, 48, 0, 161.02, 0, 3, 0, 3, 0.0, 32.2, 60.0, 0.0, nan, nan, b'RB_E_036', -999999999999999999, b'B', -999999999999999999)
 (733107, b'01', 142637034, b'C', b'T', 1, 0, 49, 0, 88.84, 0, 3, 0, 3, 0.0, 17.77, 60.0, 0.0, nan, nan, b'RB_E_036', -999999999999999999, b'T', -999999999999999999)]
Processing Time: 0.001447916030883789
