276,0310914516449
160,34907245635986
224,37539386749268
172,3502552509308
215,03245425224304
167,68556427955627
199,2898941040039
189,2626256942749
203,24344205856323
181,86888527870178
203,9180178642273
178,20407032966614
209,81236100196838
190,85922574996948
205,31751704216003
188,01365876197815
208,05154132843018
183,21813440322876
201,94871282577515
176,7292296886444
183,81157755851746
178,4536747932434
215,30304098129272
209,00481867790222
208,9547779560089
178,19728350639343
194,59124851226807
177,84192872047424
215,52970266342163
224,95777201652527
188,07238221168518
171,79185700416565
179,8738603591919
180,70541143417358
184,5358145236969
168,93971514701843
182,82461786270142
178,41240572929382
188,9599151611328
191,8837058544159
181,19330167770386
168,55160403251648
182,62361788749695
186,90703892707825
188,61848711967468
175,46422243118286
185,2431287765503
188,26523661613464
191,0270481109619
192,44094324111938
202,0625422000885
187,26309990882874
188,1870241165161
190,511216878891
196,87364053726196
188,80356192588806
195,38486170768738
191,48368501663208
215,08107614517212
204,1253068447113
Creating Index,
Processing Time: 210,19769310951233
