230,82821655273438 ;
130,19827389717102 ;
487,9201624393463 ;
429,77106070518494 ;
739,6380634307861 ;
655,4155356884003 ;
998,4601910114288 ;
885,3348534107208 ;
1264,2540140151978 ;
1121,1005346775055 ;
1264,2540140151978 ;
697,5267995595932 ;
250,77999019622803 ;
138,05081844329834 ;
494,2825400829315 ;
430,9055075645447 ;
755,6253931522369 ;
664,8520169258118 ;
1011,3758063316345 ;
887,3914949893951 ;
1281,2622764110565 ;
1125,9096274375916 ;
1281,2622764110565 ;
710,2387050390244 ;
