Werte;
0.09295010566711426 ;
0.08960914611816406 ;
0.0892171859741211 ;
0.08916330337524414 ;
0.0892343521118164 ;
0.09027457237243652 ;
0.08929872512817383 ;
0.08922410011291504 ;
0.08932828903198242 ;
0.08927798271179199 ;
0.09295010566711426 ;
0.08928835391998291 ;
0.0890970230102539 ;
0.08951234817504883 ;
0.08922410011291504 ;
0.0892033576965332 ;
0.08916234970092773 ;
0.0892176628112793 ;
0.08951997756958008 ;
0.0898439884185791 ;
0.08926129341125488 ;
0.08949160575866699 ;
0.09295010566711426 ;
0.08926963806152344 ;
0.08862519264221191 ;
0.08595919609069824 ;
0.0857241153717041 ;
0.08600878715515137 ;
0.0858757495880127 ;
0.08585810661315918 ;
0.08585166931152344 ;
0.08584165573120117 ;
0.08583712577819824 ;
0.0859992504119873 ;
0.08862519264221191 ;
0.08586692810058594 ;
0.0855414867401123 ;
0.08563423156738281 ;
0.08565497398376465 ;
0.08562493324279785 ;
0.08568763732910156 ;
0.08608102798461914 ;
0.08580899238586426 ;
0.08579754829406738 ;
0.08583807945251465 ;
0.08581042289733887 ;
0.08862519264221191 ;
0.08583760261535645 ;
0.09037446975708008 ;
0.08614325523376465 ;
0.08674240112304688 ;
0.08593630790710449 ;
0.0858621597290039 ;
0.0870199203491211 ;
0.08613991737365723 ;
0.08603048324584961 ;
0.08626675605773926 ;
0.08599734306335449 ;
0.09037446975708008 ;
0.08614158630371094 ;
0.08649516105651855 ;
0.08578062057495117 ;
0.08588695526123047 ;
0.08597087860107422 ;
0.08691883087158203 ;
0.08731794357299805 ;
0.08603525161743164 ;
0.08606147766113281 ;
0.08609175682067871 ;
0.08600783348083496 ;
0.09037446975708008 ;
0.08607661724090576 ;
0.08811068534851074 ;
0.08630228042602539 ;
0.08583736419677734 ;
0.08577919006347656 ;
0.08580231666564941 ;
0.08585047721862793 ;
0.08585667610168457 ;
0.08605146408081055 ;
0.08594727516174316 ;
0.08598446846008301 ;
0.08811068534851074 ;
0.08590197563171387 ;
0.08566975593566895 ;
0.08571553230285645 ;
0.08585906028747559 ;
0.08590507507324219 ;
0.08582711219787598 ;
0.08632612228393555 ;
0.08584094047546387 ;
0.0858457088470459 ;
0.08594751358032227 ;
0.08618545532226562 ;
0.08811068534851074 ;
0.08585786819458008 ;
0.0882728099822998 ;
0.08597421646118164 ;
0.08571338653564453 ;
0.08571910858154297 ;
0.0857093334197998 ;
0.08569884300231934 ;
0.08586716651916504 ;
0.08588695526123047 ;
0.08585453033447266 ;
0.0859076976776123 ;
0.0882728099822998 ;
0.08586084842681885 ;
0.08562707901000977 ;
0.08571720123291016 ;
0.08580160140991211 ;
0.08572244644165039 ;
0.08573555946350098 ;
0.08598732948303223 ;
0.08587217330932617 ;
0.0857839584350586 ;
0.0859837532043457 ;
0.08604025840759277 ;
0.0882728099822998 ;
0.08582806587219238 ;
0.0880279541015625 ;
0.08616209030151367 ;
0.08579802513122559 ;
0.08583855628967285 ;
0.08580613136291504 ;
0.0859837532043457 ;
0.08587360382080078 ;
0.08596062660217285 ;
0.08591914176940918 ;
0.08603954315185547 ;
0.0880279541015625 ;
0.08593988418579102 ;
0.0859837532043457 ;
0.08578610420227051 ;
0.08572554588317871 ;
0.08580517768859863 ;
0.08633708953857422 ;
0.08585405349731445 ;
0.08602452278137207 ;
0.08588194847106934 ;
0.08588242530822754 ;
0.08599138259887695 ;
0.0880279541015625 ;
0.08590078353881836 ;
0.0883486270904541 ;
0.08606219291687012 ;
0.08574175834655762 ;
0.08586955070495605 ;
0.08579659461975098 ;
0.08585548400878906 ;
0.08591580390930176 ;
0.08587837219238281 ;
0.08586621284484863 ;
0.08609294891357422 ;
0.0883486270904541 ;
0.08587396144866943 ;
0.0857381820678711 ;
0.08573269844055176 ;
0.08569169044494629 ;
0.08581948280334473 ;
0.08578753471374512 ;
0.08593559265136719 ;
0.08594179153442383 ;
0.08588290214538574 ;
0.0858755111694336 ;
0.08582115173339844 ;
0.0883486270904541 ;
0.08586788177490234 ;
