Werte;
Anzahl gefundene Calls 60774
70.96960186958313 ;
8 output length
Anzahl gefundene Calls 39635
40.78069758415222 ;
10 output length
Anzahl gefundene Calls 127672
144.63937973976135 ;
13 output length
Anzahl gefundene Calls 127503
145.8547806739807 ;
13 output length
Anzahl gefundene Calls 193334
217.29156637191772 ;
19 output length
Anzahl gefundene Calls 193085
229.90427327156067 ;
19 output length
Anzahl gefundene Calls 258011
290.8481044769287 ;
25 output length
Anzahl gefundene Calls 257688
293.3239235877991 ;
25 output length
Anzahl gefundene Calls 320960
362.93470573425293 ;
25 output length
Anzahl gefundene Calls 320571
367.33074378967285 ;
25 output length
367.33074378967285 ;
223.5979198217392 ;
