Werte;
2.162759304046631 ;
2.1506905555725098 ;
2.140571355819702 ;
2.146186590194702 ;
2.145240306854248 ;
2.1438651084899902 ;
2.1418633460998535 ;
2.142827272415161 ;
2.1415274143218994 ;
2.151202917098999 ;
2.162759304046631 ;
2.144552707672119 ;
1.8012480735778809 ;
1.814030408859253 ;
1.8029255867004395 ;
1.8223004341125488 ;
1.8089828491210938 ;
1.7979440689086914 ;
1.8062100410461426 ;
1.7966046333312988 ;
1.800877332687378 ;
1.7988412380218506 ;
1.8223004341125488 ;
1.8020868301391602 ;
3.7971420288085938 ;
3.763054370880127 ;
3.748748779296875 ;
3.7510721683502197 ;
3.7480804920196533 ;
3.7470970153808594 ;
3.7435555458068848 ;
3.7456650733947754 ;
3.7418971061706543 ;
3.747706651687622 ;
3.7971420288085938 ;
3.7478935718536377 ;
3.432711124420166 ;
3.445396900177002 ;
3.43418025970459 ;
3.4309804439544678 ;
3.4424571990966797 ;
3.428215742111206 ;
3.4367928504943848 ;
3.426999807357788 ;
3.4311177730560303 ;
3.429124116897583 ;
3.445396900177002 ;
3.431914448738098 ;
2.0962722301483154 ;
2.0859155654907227 ;
2.149667263031006 ;
1.9976708889007568 ;
2.012882709503174 ;
1.9797389507293701 ;
2.0056142807006836 ;
2.107012987136841 ;
2.051204204559326 ;
1.9683349132537842 ;
2.149667263031006 ;
2.03204345703125 ;
1.6997966766357422 ;
1.9257457256317139 ;
1.7282531261444092 ;
1.6202623844146729 ;
1.692976474761963 ;
1.7241826057434082 ;
1.7775671482086182 ;
1.677039384841919 ;
1.7011487483978271 ;
1.7604517936706543 ;
1.9257457256317139 ;
1.7126656770706177 ;
2.0669612884521484 ;
2.0715625286102295 ;
2.069572925567627 ;
2.061554431915283 ;
2.1169514656066895 ;
2.507240056991577 ;
2.4518911838531494 ;
2.088222026824951 ;
2.0615432262420654 ;
2.0656917095184326 ;
2.507240056991577 ;
2.0705677270889282 ;
1.7052726745605469 ;
1.6805446147918701 ;
1.683643102645874 ;
1.73292875289917 ;
1.8184444904327393 ;
1.7404963970184326 ;
1.7365577220916748 ;
1.7716610431671143 ;
1.6988441944122314 ;
1.7041022777557373 ;
1.8184444904327393 ;
1.7191007137298584 ;
