
top - 18:35:05 up 36 days,  7:25,  2 users,  load average: 0,04, 0,09, 0,12
Aufgaben: 209 total,   2 running, 206 sleeping,   0 stopped,   1 zombie
%Cpu(s):  5,2 be,  2,6 sy,  0,0 ni, 92,1 un,  0,0 wa,  0,0 hi,  0,1 si,  0,0 st
KiB Mem:  16280012 total, 16032804 used,   247208 free,   382936 buffers
KiB Swap: 16771856 total,    71580 used, 16700276 free. 14473832 cached Mem

  PID BENUTZER  PR  NI    VIRT    RES    SHR S  %CPU %MEM     TIME+ COMMAND
 3043 ikullack  20   0       0      0      0 Z  63,8  0,0   0:01.92 python
 3042 ikullack  20   0   30648   1816   1312 R   0,3  0,0   0:00.01 top
 2232 ikullack  20   0   70132   1780   1000 S   0,0  0,0   0:00.05 sshd
 2233 ikullack  20   0   29744   5240   1848 S   0,0  0,0   0:00.09 bash
 2255 ikullack  20   0   70132   1784   1000 S   0,0  0,0   0:00.00 sshd
 2256 ikullack  20   0   29744   5240   1848 S   0,0  0,0   0:00.06 bash
 2366 ikullack  20   0   70268   1792   1012 S   0,0  0,0   0:00.00 sshd
 2367 ikullack  20   0   12960   1056    864 S   0,0  0,0   0:00.00 sftp-server

top - 18:35:08 up 36 days,  7:25,  2 users,  load average: 0,12, 0,11, 0,12
Aufgaben: 209 total,   2 running, 207 sleeping,   0 stopped,   0 zombie
%Cpu(s): 11,5 be,  7,1 sy,  0,0 ni, 81,3 un,  0,1 wa,  0,0 hi,  0,0 si,  0,0 st
KiB Mem:  16280012 total, 16057512 used,   222500 free,   382952 buffers
KiB Swap: 16771856 total,    71580 used, 16700276 free. 14474112 cached Mem

  PID BENUTZER  PR  NI    VIRT    RES    SHR S  %CPU %MEM     TIME+ COMMAND
 3107 ikullack  20   0  474892  34072   8908 R  28,6  0,2   0:00.86 python
 2232 ikullack  20   0   70132   1780   1000 S   0,3  0,0   0:00.06 sshd
 2233 ikullack  20   0   29744   5240   1848 S   0,3  0,0   0:00.10 bash
 3042 ikullack  20   0   30648   1816   1312 R   0,3  0,0   0:00.02 top
 2255 ikullack  20   0   70132   1784   1000 S   0,0  0,0   0:00.00 sshd
 2256 ikullack  20   0   29744   5240   1848 S   0,0  0,0   0:00.06 bash
 2366 ikullack  20   0   70268   1792   1012 S   0,0  0,0   0:00.00 sshd
 2367 ikullack  20   0   12960   1056    864 S   0,0  0,0   0:00.00 sftp-server

top - 18:35:11 up 36 days,  7:25,  2 users,  load average: 0,19, 0,12, 0,13
Aufgaben: 209 total,   2 running, 207 sleeping,   0 stopped,   0 zombie
%Cpu(s): 11,6 be,  4,9 sy,  0,0 ni, 83,4 un,  0,0 wa,  0,0 hi,  0,0 si,  0,0 st
KiB Mem:  16280012 total, 16059004 used,   221008 free,   382952 buffers
KiB Swap: 16771856 total,    71580 used, 16700276 free. 14474440 cached Mem

  PID BENUTZER  PR  NI    VIRT    RES    SHR S  %CPU %MEM     TIME+ COMMAND
 3149 ikullack  20   0  474796  33844   8912 R  42,9  0,2   0:01.29 python
 2232 ikullack  20   0   70132   1780   1000 S   0,3  0,0   0:00.07 sshd
 2233 ikullack  20   0   29744   5240   1848 S   0,0  0,0   0:00.10 bash
 2255 ikullack  20   0   70132   1784   1000 S   0,0  0,0   0:00.00 sshd
 2256 ikullack  20   0   29744   5240   1848 S   0,0  0,0   0:00.06 bash
 2366 ikullack  20   0   70268   1792   1012 S   0,0  0,0   0:00.00 sshd
 2367 ikullack  20   0   12960   1056    864 S   0,0  0,0   0:00.00 sftp-server
 3042 ikullack  20   0   30648   1816   1312 R   0,0  0,0   0:00.02 top

