False annotations_table.indexed
True annotations_table.autoindex
False calls_table.indexed
True calls_table.autoindex
False samples_table.indexed
True samples_table.autoindex
False variants_snp_table.indexed
True variants_snp_table.autoindex
False variants_nosnp_table.indexed
True variants_nosnp_table.autoindex
Processing Time: 0.03554081916809082
['RB_E_011']
sample ids {1}
Processing Time: 0.0015060901641845703
{1}
Durchlauf call 0.7854161262512207
Anzahl gefundene calls 155390
Gesamtzeit call 0.7854511737823486
Anzahl gefundene calls 155390
Processing Time: 0.7854650020599365
['RB_E_011']
sample ids {0}
Processing Time: 0.0011839866638183594
{0}
Durchlauf call 0.7593131065368652
Anzahl gefundene calls 164157
Gesamtzeit call 0.7593419551849365
Anzahl gefundene calls 164157
Processing Time: 0.7593610286712646
Anzahl Calls:  139966
Anzahl Varianten 139966
Processing Time: 3329.926283121109
Processing Time: 3331.4768261909485
Abfragezeit:  3333.3392610549927
