False is_search_in_kernel
{1}
Anzahl Calls: 177891
0,1093599796295166
0,21677207946777344
0,324038028717041
0,4331090450286865
0,5414750576019287
0,6505780220031738
0,7574961185455322
0,8683249950408936
0,9757471084594727
1,0860929489135742
1,1967861652374268
1,3052990436553955
1,415992021560669
1,5266351699829102
1,6421620845794678
1,7511601448059082
1,8617889881134033
1,9694609642028809
2,078855037689209
2,192682981491089
2,3008501529693604
2,4103500843048096
2,517009973526001
2,6246089935302734
2,733402967453003
2,8421339988708496
2,9507851600646973
3,057995080947876
3,1822049617767334
3,2983779907226562
3,4120891094207764
3,5189321041107178
3,625839948654175
3,7325539588928223
3,839740037918091
3,9485201835632324
4,054533004760742
4,160315990447998
4,26689600944519
4,386298179626465
4,4958600997924805
4,605910062789917
4,717457056045532
4,83115816116333
4,955862998962402
5,062369108200073
5,171252965927124
5,27907395362854
5,389327049255371
5,494929075241089
5,599362134933472
5,708683013916016
5,81914496421814
5,9292590618133545
6,0373780727386475
6,143532037734985
6,2488789558410645
6,357295989990234
6,465814113616943
6,574948072433472
6,686553955078125
6,797724962234497
6,905864953994751
7,012847185134888
7,123308181762695
7,232632160186768
7,340420961380005
7,451696157455444
7,5594611167907715
7,669932126998901
7,777982950210571
7,884515047073364
7,989012956619263
8,093165159225464
8,202295064926147
8,307880163192749
8,415006160736084
8,519565105438232
8,628206014633179
8,733976125717163
8,842395067214966
8,95211410522461
9,05605697631836
9,161988973617554
9,268676996231079
9,376274108886719
9,48698902130127
9,592602968215942
9,702875137329102
9,814475059509277
9,928882122039795
10,036241054534912
10,14431095123291
10,25048303604126
10,359349966049194
10,468470096588135
10,579854965209961
10,690032005310059
10,797929048538208
10,909664154052734
11,01609206199646
11,12112307548523
11,228752136230469
11,335039138793945
11,450515985488892
11,574586153030396
11,686167001724243
11,800011157989502
11,911242008209229
12,023571968078613
12,136950016021729
12,256221055984497
12,369182109832764
12,486032009124756
12,601449012756348
12,72018313407898
12,834144115447998
12,949599981307983
13,067569017410278
13,187772035598755
13,299190998077393
13,411611080169678
13,51800012588501
13,62601113319397
13,740235090255737
13,856105089187622
13,971888065338135
14,080367088317871
14,192682027816772
14,307926177978516
14,418446063995361
14,527055978775024
14,634615182876587
14,745970964431763
14,858347177505493
14,972658157348633
15,082844972610474
15,191275119781494
15,296424150466919
15,40725302696228
15,513931035995483
15,6183340549469
15,729323148727417
15,834596157073975
15,949404954910278
16,062405109405518
16,180031061172485
16,297945022583008
16,415745973587036
16,522279024124146
16,63084316253662
16,73926305770874
16,845391035079956
16,951146125793457
17,06195306777954
17,169836044311523
17,279637098312378
17,38651418685913
17,502684116363525
17,623026132583618
17,740117073059082
17,85735511779785
17,976149082183838
18,09532117843628
18,21736717224121
18,335504055023193
18,454102039337158
18,57133913040161
18,69169306755066
18,81334614753723
18,936542987823486
19,05729603767395
19,17771816253662
19,293620109558105
19,405241012573242
19,516714096069336
19,628890991210938
19,743966102600098
19,854405164718628
19,966864109039307
20,075629949569702
20,188771963119507
20,29888105392456
20,40672206878662
20,51534605026245
20,62833309173584
20,742017030715942
20,852180004119873
20,962345123291016
21,0733060836792
21,183348178863525
21,293986082077026
21,405686140060425
21,521315097808838
21,634912967681885
21,751180171966553
21,86210608482361
21,97408699989319
22,08582615852356
22,203838109970093
22,328343152999878
22,437904119491577
22,549092054367065
22,653308153152466
22,76628613471985
22,87190008163452
22,98340106010437
23,0905921459198
23,20145010948181
23,311864137649536
23,420658111572266
23,52928900718689
23,637912034988403
23,7480411529541
23,85989499092102
23,969690084457397
24,07821011543274
24,197715044021606
24,307666063308716
24,419393062591553
24,53161597251892
24,642707109451294
24,75796914100647
24,871378183364868
24,986366987228394
25,09649109840393
25,21620512008667
25,32994508743286
25,446388959884644
25,566826105117798
25,6859769821167
25,807347059249878
25,91930913925171
26,026718139648438
26,135255098342896
26,244922161102295
26,352221965789795
26,45816206932068
26,56358003616333
26,67148518562317
26,782467126846313
26,894432067871094
27,007292985916138
27,117858171463013
27,237210035324097
27,352338075637817
27,46579599380493
27,578935146331787
27,698601961135864
27,820544958114624
27,941861152648926
28,058245182037354
28,1758770942688
28,29514718055725
28,417509078979492
28,538166999816895
28,651859045028687
28,768965005874634
28,882012128829956
28,993184089660645
29,110725164413452
29,23845911026001
29,346281051635742
29,455666065216064
29,56562113761902
29,674291133880615
29,7849280834198
29,893666982650757
30,00400400161743
30,11262607574463
30,221986055374146
30,33172917366028
30,441095113754272
30,55433416366577
30,66467809677124
30,776561975479126
30,88606905937195
30,99523901939392
31,102513074874878
31,21389412879944
31,321980953216553
31,432053089141846
31,54445195198059
31,65460515022278
31,76715898513794
31,876633167266846
31,988733053207397
32,098167181015015
32,20943808555603
32,320173025131226
32,43151617050171
32,541548013687134
32,6495521068573
32,75891900062561
32,87133312225342
32,98185205459595
33,09424304962158
33,20492911338806
33,31474304199219
33,42422604560852
33,534547090530396
33,64153814315796
33,75000500679016
33,857017993927
33,96712398529053
34,07534909248352
34,182634115219116
34,29114603996277
34,40046000480652
34,51147508621216
34,62448215484619
34,73525905609131
34,84527611732483
34,95207214355469
35,06421518325806
35,17536211013794
35,28512406349182
35,39424395561218
35,50380897521973
35,61254000663757
35,72239303588867
35,83210015296936
35,93700909614563
36,04606318473816
36,15256094932556
36,2633740901947
36,37072014808655
36,47940516471863
36,58719205856323
36,69814705848694
36,80942511558533
36,917325019836426
37,02519607543945
37,13302516937256
37,24343013763428
37,353721141815186
37,46321702003479
37,5759551525116
37,686596155166626
37,80242609977722
37,91502594947815
38,025628089904785
38,135565996170044
38,24790596961975
38,35978317260742
38,4695930480957
38,583033084869385
38,69580101966858
38,807186126708984
38,91995096206665
39,03022313117981
39,143754959106445
39,25765800476074
39,3700749874115
39,47815299034119
39,586143016815186
39,69461107254028
39,80547595024109
39,91418218612671
40,02840209007263
40,138148069381714
40,25058197975159
40,36150598526001
40,47192597389221
40,587584018707275
40,703195095062256
40,81503105163574
40,92000913619995
41,028637170791626
41,13746905326843
41,247190952301025
41,35863494873047
41,46858811378479
41,57928013801575
41,68961811065674
41,80184602737427
41,91170310974121
42,02019000053406
42,12921214103699
42,23922896385193
42,34803009033203
42,45901298522949
42,57146501541138
42,68132305145264
42,79342317581177
42,90224599838257
43,01147198677063
43,119805097579956
43,23034596443176
43,342719078063965
43,450319051742554
43,560211181640625
43,6709041595459
43,781604051589966
43,88981008529663
43,99952697753906
44,1071879863739
44,21620202064514
44,32472610473633
44,43209505081177
44,541537046432495
44,65024209022522
44,75795912742615
44,87071108818054
44,979243993759155
45,088622093200684
45,196333169937134
45,303272008895874
45,4097740650177
45,520606994628906
45,62716317176819
45,7367160320282
45,84570097923279
45,95263195037842
46,0652961730957
46,175734996795654
46,29176902770996
46,39857006072998
46,506108045578
46,61917996406555
46,72837710380554
46,83887505531311
46,94895005226135
47,05912399291992
47,17075705528259
47,282318115234375
47,39252495765686
47,50048899650574
47,61014795303345
47,71933698654175
47,82826209068298
47,93555498123169
48,045166969299316
48,155019998550415
48,26711416244507
48,37662410736084
48,48320412635803
48,59283399581909
48,702852964401245
48,81547808647156
48,92296314239502
49,03353309631348
49,14167904853821
49,25129508972168
49,36241602897644
49,47175216674805
49,587599992752075
49,70007395744324
49,81023097038269
49,922006130218506
50,03274703025818
50,139979124069214
50,250166177749634
50,37341618537903
50,48286008834839
50,601004123687744
50,71219515800476
50,82719898223877
50,93942213058472
51,04919505119324
51,15885305404663
51,26986312866211
51,382331132888794
51,4919331073761
51,60426115989685
51,723637104034424
51,846755027770996
51,965280055999756
52,078715085983276
52,18991994857788
52,30079507827759
52,409860134124756
52,51896095275879
52,6275680065155
52,736510038375854
52,846338987350464
52,953771114349365
53,06763696670532
53,17677402496338
53,28831696510315
53,39691114425659
53,50486397743225
53,61565017700195
53,72424912452698
53,83683204650879
53,948639154434204
54,06262397766113
54,17214298248291
54,280267000198364
54,39061713218689
54,49752616882324
54,60917806625366
54,71809411048889
54,82857704162598
54,936772108078
55,0446240901947
55,14876914024353
55,25636696815491
55,363929986953735
55,471426010131836
55,588850021362305
55,702752113342285
55,81752800941467
55,92972207069397
56,04425811767578
56,15746808052063
56,27058410644531
56,3831889629364
56,496647119522095
56,60917115211487
56,71958804130554
56,831604957580566
56,94218301773071
57,05244517326355
57,16334104537964
57,276597023010254
57,38748002052307
57,49587607383728
57,60554218292236
57,716026067733765
57,827144145965576
57,93867802619934
58,04731011390686
58,15693497657776
58,26795697212219
58,37801694869995
58,48732900619507
58,60085201263428
58,71498417854309
58,829270124435425
58,940433979034424
59,0494019985199
59,160892963409424
59,26993799209595
59,38162398338318
59,49141001701355
59,601967096328735
59,71204614639282
59,82591509819031
59,940083026885986
60,05379796028137
60,1653790473938
60,27587008476257
60,38688397407532
60,49668312072754
60,608500957489014
60,72056603431702
60,83355116844177
60,944936990737915
61,07024312019348
61,18431997299194
61,32378315925598
61,43814015388489
61,55122900009155
61,661941051483154
61,77073407173157
61,88161015510559
61,9911789894104
62,10337209701538
62,217272996902466
62,32846212387085
62,43708896636963
62,545427083969116
62,65704917907715
62,77023911476135
62,8808171749115
62,98890209197998
63,096819162368774
63,2063410282135
63,32260513305664
63,438438177108765
63,55466103553772
63,672059059143066
63,78758502006531
63,90690207481384
64,02216601371765
64,13890194892883
64,25434398651123
64,36827111244202
64,48217916488647
64,59224510192871
64,7032241821289
64,81483697891235
64,9294171333313
65,04289412498474
65,15418815612793
65,26376795768738
65,37172508239746
65,47892308235168
65,5902349948883
65,69968008995056
65,81019806861877
65,9205629825592
66,03440618515015
66,15378999710083
66,26406407356262
66,37455701828003
66,48458003997803
66,59588313102722
66,70663809776306
66,81534194946289
66,92912006378174
67,03951001167297
67,15381813049316
67,27812814712524
67,39512205123901
67,5055980682373
67,61630606651306
67,72479701042175
67,83252811431885
67,94330310821533
68,0533709526062
68,16445398330688
68,2747700214386
68,38800811767578
68,4993360042572
68,61034107208252
68,72184896469116
68,82943201065063
68,93939900398254
69,04777503013611
69,15850901603699
69,26524114608765
69,37307596206665
69,47991800308228
69,58686709403992
69,69821214675903
69,81247615814209
69,9222240447998
70,03246712684631
70,14466214179993
70,26194596290588
70,37797403335571
70,48807001113892
70,60706400871277
70,72497797012329
70,84203314781189
70,95895099639893
71,07345700263977
71,19369411468506
71,31098914146423
71,43056607246399
71,54805111885071
71,66450715065002
71,77843618392944
71,88912916183472
71,9986720085144
72,106192111969
72,21909713745117
72,3340711593628
72,45076107978821
72,56669902801514
72,68529105186462
72,805251121521
72,92802095413208
73,0487790107727
73,17367005348206
73,29395604133606
73,4155580997467
73,5390191078186
73,6611270904541
73,78062415122986
73,89956498146057
74,01279616355896
74,12311315536499
74,2316460609436
74,33952808380127
74,45138502120972
74,56699705123901
74,67738103866577
74,78698801994324
74,90103507041931
75,01518201828003
75,12957906723022
75,24703216552734
75,36689496040344
75,48816895484924
75,60742902755737
75,72735905647278
75,84854316711426
75,96787714958191
76,08744597434998
76,20557498931885
76,32568407058716
76,44350409507751
76,55525398254395
76,6693971157074
76,77839612960815
76,88752818107605
76,99896907806396
77,11196398735046
77,23186016082764
77,34187006950378
77,45854806900024
77,56896805763245
77,68010401725769
77,7904109954834
77,90014100074768
78,01374006271362
78,12488198280334
78,237056016922
78,34981918334961
78,46238398551941
78,5727059841156
78,69130611419678
78,81450200080872
78,93834114074707
79,05585312843323
79,17436695098877
79,295902967453
79,41795015335083
79,53932118415833
79,66021299362183
79,77754211425781
79,89931201934814
80,01849317550659
80,13914513587952
80,25433707237244
80,37222695350647
80,49839401245117
80,61772513389587
80,7361090183258
80,85268902778625
80,97112703323364
81,09109306335449
81,21088314056396
81,32715201377869
81,4466769695282
81,56445598602295
81,68449902534485
81,80176210403442
81,91964316368103
82,03797316551208
82,15755105018616
82,27834796905518
82,39803814888
82,51635098457336
82,63568997383118
82,75873899459839
82,88179302215576
83,00273108482361
83,12246012687683
83,23928308486938
83,35499811172485
83,47285914421082
83,59162712097168
83,71055006980896
83,82728004455566
83,946298122406
84,06626200675964
84,18664717674255
84,30629801750183
84,42531895637512
84,54328799247742
84,66116404533386
84,77329611778259
84,88880801200867
85,00284814834595
85,12165403366089
85,24408602714539
85,3622841835022
85,48313403129578
85,60311198234558
85,71636199951172
85,83402109146118
85,94669318199158
86,06264400482178
86,18182396888733
86,29785108566284
86,4161729812622
86,53212213516235
86,65382695198059
86,77530002593994
86,89501404762268
87,0151469707489
87,13064813613892
87,24447107315063
87,35718202590942
87,47209000587463
87,58426904678345
87,69689106941223
87,80996298789978
87,9263551235199
88,03846716880798
88,15405106544495
88,26633906364441
88,37681818008423
88,48865914344788
88,59800696372986
88,71029996871948
88,82718801498413
88,94577503204346
89,06087017059326
89,17298007011414
89,28641700744629
89,39655303955078
89,51072001457214
89,62002611160278
89,72981095314026
89,84174704551697
89,9512231349945
90,05983901023865
90,17157697677612
90,27905607223511
90,3887791633606
90,50855803489685
90,61994814872742
90,73180913925171
90,84015607833862
90,94974303245544
91,05715703964233
91,16714215278625
91,27821111679077
91,39023518562317
91,50128698348999
91,61368703842163
91,72419595718384
91,8320300579071
91,94344902038574
92,05404114723206
92,16250705718994
92,276358127594
92,3869080543518
92,4985990524292
92,61241602897644
92,7257730960846
92,83610200881958
92,94775199890137
93,05838418006897
93,17124795913696
93,28382897377014
93,39421010017395
93,50506496429443
93,614098072052
93,72690296173096
93,83672308921814
93,94791913032532
94,05910897254944
94,16854405403137
94,27889013290405
94,38619804382324
94,49570798873901
94,6057140827179
94,715096950531
94,82633900642395
94,94096803665161
95,05134105682373
95,15806603431702
95,26861715316772
95,38129210472107
95,4921350479126
95,60191702842712
95,71440696716309
95,82352614402771
95,9360020160675
96,05203795433044
96,16366195678711
96,27685403823853
96,3840491771698
96,49581813812256
96,60337400436401
96,7135181427002
96,82027411460876
96,93561506271362
97,05015707015991
97,16053795814514
97,27631497383118
97,38755011558533
97,4990770816803
97,61308097839355
97,72303509712219
97,831698179245
97,9376380443573
98,04592299461365
98,15342402458191
98,2622971534729
98,37121510505676
98,47899603843689
98,59131503105164
98,71283411979675
98,82148599624634
98,92885303497314
99,03615713119507
99,14162302017212
99,25026297569275
99,35515809059143
99,46290111541748
99,5684061050415
99,67391204833984
99,78203010559082
99,89115905761719
100,00023198127747
100,10770297050476
100,21701002120972
100,32491612434387
100,43013215065002
100,53676199913025
100,6417441368103
100,74823808670044
100,85697317123413
100,96326899528503
101,06918215751648
101,17332100868225
101,27964615821838
101,38729810714722
101,49630403518677
101,60744595527649
101,71995711326599
101,83014297485352
101,93688797950745
102,04366517066956
102,1494631767273
102,25588417053223
102,36032509803772
102,46929907798767
102,58369898796082
102,69812798500061
102,81189608573914
102,91924214363098
103,02936005592346
103,14122796058655
103,25393414497375
103,36137008666992
103,46975302696228
103,5787000656128
103,68740916252136
103,79979014396667
103,91268014907837
104,02294611930847
104,13401198387146
104,2449049949646
104,35527300834656
104,46644711494446
104,57782912254333
104,68724513053894
104,80086302757263
104,91464710235596
105,0295159816742
105,13887906074524
105,24843406677246
105,35685706138611
105,47007918357849
105,58010196685791
105,68984413146973
105,803719997406
105,91482996940613
106,02707195281982
106,13574695587158
106,24771809577942
106,35906410217285
106,46867799758911
106,58228802680969
106,69437718391418
106,80508017539978
106,91577196121216
107,02623510360718
107,13611006736755
107,24907517433167
107,35896611213684
107,46946501731873
107,58089995384216
107,68699502944946
107,79864597320557
107,90554404258728
108,0161509513855
108,122967004776
108,230642080307
108,34049606323242
108,44933605194092
108,55984210968018
108,66834902763367
108,78093600273132
108,89221000671387
109,00228905677795
109,11339116096497
109,22117614746094
109,33163595199585
109,44040107727051
109,55032896995544
109,65934896469116
109,76866507530212
109,87812304496765
109,9835250377655
110,09180617332458
110,20187902450562
110,31226110458374
110,42132496833801
110,5308690071106
110,64164400100708
110,75555610656738
110,8652331829071
110,97321105003357
111,08199906349182
111,18999099731445
111,30073118209839
111,4081871509552
111,51952695846558
111,62759113311768
111,73699498176575
111,84970116615295
111,95732617378235
112,06685900688171
112,1755039691925
112,2842321395874
112,39498710632324
112,50364208221436
112,61216306686401
112,72357296943665
112,83263611793518
112,94173097610474
113,05076003074646
113,15877509117126
113,26911807060242
113,3763279914856
113,48551917076111
113,59500503540039
113,70330095291138
113,81083297729492
113,92171597480774
114,03349614143372
114,14388608932495
114,25491499900818
114,36420202255249
114,47426104545593
114,58604001998901
114,7007851600647
114,81288504600525
114,92078399658203
115,03118515014648
115,14132118225098
115,25319218635559
115,36407613754272
115,47383999824524
115,58340501785278
115,69468307495117
115,80745315551758
115,91534805297852
116,02509617805481
116,13490200042725
116,24657797813416
116,35980606079102
116,46993708610535
116,57957005500793
116,6882381439209
116,80031895637512
116,9098801612854
117,01978397369385
117,12948703765869
117,23918104171753
117,35090517997742
117,46120810508728
117,5725610256195
117,67933011054993
117,79338812828064
117,9045000076294
118,01474404335022
118,12819314002991
118,24075508117676
118,34925699234009
118,45905208587646
118,568598985672
118,68349599838257
118,793447971344
118,90017414093018
119,01345109939575
119,12728714942932
119,24056315422058
119,35377311706543
119,46443104743958
119,57413411140442
119,68573212623596
119,79781413078308
119,90788412094116
120,01416301727295
120,12206816673279
120,22934103012085
120,33925104141235
120,44707608222961
120,55710816383362
120,66687202453613
120,77443504333496
120,88470911979675
120,99204301834106
121,10027718544006
121,20905113220215
121,31982803344727
121,43101501464844
121,5407931804657
121,64966702461243
121,75973105430603
121,86888313293457
121,97894215583801
122,09101796150208
122,20154309272766
122,3151490688324
122,42592000961304
122,53539395332336
122,64385294914246
122,75150799751282
122,86440706253052
122,97462010383606
123,08635902404785
123,19434714317322
123,3069121837616
123,41713404655457
123,52595806121826
123,63783717155457
123,74653697013855
123,85973811149597
123,9708480834961
124,08090806007385
124,19221901893616
124,30079102516174
124,40830111503601
124,51993298530579
124,63129997253418
124,74133610725403
124,85180997848511
124,9597761631012
125,07140803337097
125,18171811103821
125,29165816307068
125,40242099761963
125,51095509529114
125,62244701385498
125,73081398010254
125,84455013275146
125,95420908927917
126,06604599952698
126,1784131526947
126,29262208938599
126,40670204162598
126,52046608924866
126,63714218139648
126,74805402755737
126,85844302177429
126,96697616577148
127,07750415802002
127,19353103637695
127,30406308174133
127,41621994972229
127,52533102035522
127,63836097717285
127,75040411949158
127,86655807495117
127,97679805755615
128,08669710159302
128,1968059539795
128,30763912200928
128,41602611541748
128,5268850326538
128,6387140750885
128,74745798110962
128,85989713668823
128,9712851047516
129,08005118370056
129,18910908699036
129,29792404174805
129,40790915489197
129,5183801651001
129,62782311439514
129,73667216300964
129,84709405899048
129,95472311973572
130,06244897842407
130,1716480255127
130,2811779975891
130,39252996444702
130,50184106826782
130,6135950088501
130,72179102897644
130,832848072052
130,94167113304138
131,04930901527405
131,1610550880432
131,2716670036316
131,3841061592102
131,49388003349304
131,60232615470886
131,71162796020508
131,8177990913391
131,9263050556183
132,03163599967957
132,14482307434082
132,2577199935913
132,36945796012878
132,48109817504883
132,59326195716858
132,70498609542847
132,81443095207214
132,9238200187683
133,03133416175842
133,1407971382141
133,25000309944153
133,36390614509583
133,4742181301117
133,5853681564331
133,69665813446045
133,8071231842041
133,92138409614563
134,0314221382141
134,1448850631714
134,25537610054016
134,36634707450867
134,48008513450623
134,59572505950928
134,70880508422852
134,82158207893372
134,93237805366516
135,04253816604614
135,1508071422577
135,26086711883545
135,37806010246277
135,48658418655396
135,6002950668335
135,70741510391235
135,81788206100464
135,93216705322266
136,0467700958252
136,15943908691406
136,2648949623108
136,37463402748108
136,4876389503479
136,59832406044006
136,70732712745667
136,81463813781738
136,9255530834198
137,0347340106964
137,146546125412
137,25888013839722
137,3702871799469
137,48195004463196
137,5911111831665
137,70141196250916
137,81247901916504
137,92404413223267
138,03437113761902
138,14490413665771
138,25525903701782
138,37136006355286
138,48123717308044
138,59208917617798
138,7050440311432
138,81548595428467
138,9293131828308
139,04113912582397
139,1503541469574
139,26094102859497
139,37239003181458
139,48459196090698
139,59509801864624
139,70761013031006
139,81795406341553
139,9276101589203
140,0359661579132
140,14630818367004
140,25560998916626
140,36581802368164
140,47468304634094
140,5852530002594
140,6966781616211
140,80731916427612
140,91686415672302
141,02442502975464
141,13643503189087
141,24218010902405
141,35068917274475
141,46046996116638
141,57722115516663
141,6872730255127
141,79587697982788
141,90866804122925
142,01989006996155
142,13012504577637
142,24321699142456
142,3516969680786
142,46425008773804
142,57686710357666
142,68879508972168
142,80031204223633
142,90989804267883
143,02041101455688
143,13255500793457
143,24263906478882
143,3535931110382
143,46549701690674
143,57822012901306
143,69137716293335
143,79884505271912
143,90837717056274
144,0154709815979
144,129723072052
144,2363829612732
144,34797716140747
144,46319103240967
144,57906818389893
144,69365310668945
144,80186796188354
144,91579413414001
145,02789497375488
145,13827514648438
145,24789810180664
145,35638308525085
145,46809196472168
145,5814390182495
145,69305300712585
145,80163717269897
145,91276907920837
146,02420902252197
146,13755106925964
146,24592399597168
146,35397005081177
146,46531295776367
146,57444500923157
146,68604111671448
146,7944631576538
146,90703415870667
147,01545906066895
147,12714910507202
147,24072408676147
147,3501410484314
147,46073007583618
147,5692901611328
147,68512105941772
147,79978799819946
147,91181707382202
148,02302408218384
148,13014006614685
148,24132108688354
148,35072898864746
148,45843601226807
148,56849098205566
148,67998099327087
148,7904031276703
148,90371417999268
149,0123610496521
149,12127900123596
149,2332260608673
149,34289717674255
149,45817112922668
149,56660199165344
149,6772871017456
149,78666996955872
149,89888095855713
150,00915598869324
150,11874198913574
150,229798078537
150,33894395828247
150,44881105422974
150,55782198905945
150,66557216644287
150,77503609657288
150,88507914543152
150,99449014663696
151,1053981781006
151,21716403961182
151,3292670249939
151,44097900390625
151,5478630065918
151,66023898124695
151,77357506752014
151,88742303848267
152,00179600715637
152,1135230064392
152,22654700279236
152,34060215950012
152,45312213897705
152,56652903556824
152,68125200271606
152,79707312583923
152,90974712371826
153,0218870639801
153,13173007965088
153,24031114578247
153,34983897209167
153,4583351612091
153,5730321407318
153,6870231628418
153,7998960018158
153,91790914535522
154,02876996994019
154,15216612815857
154,27547001838684
154,39697909355164
154,52126812934875
154,64354300498962
154,7606701850891
154,87378907203674
154,9857940673828
155,09794116020203
155,211492061615
155,3369481563568
155,44922399520874
155,5641360282898
155,67673015594482
155,78834915161133
155,89996004104614
156,01034212112427
156,12029504776
