False annotations_table.indexed
True annotations_table.autoindex
False calls_table.indexed
True calls_table.autoindex
False samples_table.indexed
True samples_table.autoindex
False variants_snp_table.indexed
True variants_snp_table.autoindex
False variants_nosnp_table.indexed
True variants_nosnp_table.autoindex
Processing Time: 6.357370853424072
Anzahl gefundene Calls 739368
Zeit 1. Teil: 6.365035057067871
Zeit 3. Teil: 1.5132040977478027
Zeilendurchlauf Output-Dict: 2.073072910308838
Zeilendurchlauf Output-Dict: 2.6491949558258057
Zeilendurchlauf Output-Dict: 3.2085039615631104
Zeilendurchlauf Output-Dict: 3.786634922027588
Zeilendurchlauf Output-Dict: 4.36525297164917
Zeilendurchlauf Output-Dict: 4.941973924636841
Zeilendurchlauf Output-Dict: 5.501883029937744
Zeilendurchlauf Output-Dict: 6.060139894485474
Zeilendurchlauf Output-Dict: 6.641529083251953
Zeilendurchlauf Output-Dict: 7.217849969863892
Zeilendurchlauf Output-Dict: 7.772417068481445
Zeilendurchlauf Output-Dict: 8.33613109588623
Zeilendurchlauf Output-Dict: 8.915957927703857
Zeilendurchlauf Output-Dict: 9.489089965820312
Zeilendurchlauf Output-Dict: 10.053875923156738
Zeilendurchlauf Output-Dict: 10.626923084259033
Zeilendurchlauf Output-Dict: 11.182352066040039
Zeilendurchlauf Output-Dict: 11.74482011795044
Zeilendurchlauf Output-Dict: 12.30000901222229
Zeilendurchlauf Output-Dict: 12.857831954956055
Zeilendurchlauf Output-Dict: 13.425493955612183
Zeilendurchlauf Output-Dict: 14.005713939666748
Zeilendurchlauf Output-Dict: 14.579299926757812
Zeilendurchlauf Output-Dict: 15.123516082763672
Zeilendurchlauf Output-Dict: 15.678468942642212
Zeilendurchlauf Output-Dict: 16.259608030319214
