Werte;
180.35347890853882 ;
99.97644329071045 ;
372.97342348098755 ;
326.22396874427795 ;
563.7115097045898 ;
494.5400266647339 ;
754.7755596637726 ;
685.7054419517517 ;
1069.1346909999847 ;
983.499972820282 ;
1069.1346909999847 ;
529.1257681846619 ;
221.6944980621338 ;
106.8146288394928 ;
382.2472469806671 ;
342.9536852836609 ;
616.2161355018616 ;
530.4938476085663 ;
841.5714635848999 ;
774.2965753078461 ;
1103.170040845871 ;
1070.7989690303802 ;
1103.170040845871 ;
573.3549915552139 ;
