198.6277277469635 ;
103.22501420974731 ;
375.55779457092285 ;
328.55049872398376 ;
568.0923643112183 ;
498.2590284347534 ;
764.0060381889343 ;
698.3362514972687 ;
1091.9013164043427 ;
1075.5100736618042 ;
1091.9013164043427 ;
533.1756963729858 ;
245.642103433609 ;
129.85388374328613 ;
427.80011224746704 ;
405.7749214172363 ;
706.2511696815491 ;
641.2395992279053 ;
963.8439602851868 ;
888.0194735527039 ;
1260.3776669502258 ;
1189.605637550354 ;
1260.3776669502258 ;
673.7453844547272 ;
