Werte;
192.2069799900055 ;
104.66301035881042 ;
380.71627950668335 ;
333.80668091773987 ;
576.1721813678741 ;
505.5569648742676 ;
771.9294319152832 ;
698.0467400550842 ;
1115.1739857196808 ;
1082.805346250534 ;
1115.1739857196808 ;
540.8645731210709 ;
246.35260200500488 ;
130.5845501422882 ;
431.0014307498932 ;
409.2922148704529 ;
722.0920820236206 ;
644.8414914608002 ;
979.5965619087219 ;
887.002569437027 ;
1245.1431303024292 ;
1199.7523355484009 ;
1245.1431303024292 ;
683.4667867422104 ;
197.08072137832642 ;
102.1964967250824 ;
371.4507255554199 ;
325.0096709728241 ;
562.1839287281036 ;
493.3857159614563 ;
754.6825709342957 ;
678.803902387619 ;
1110.3678028583527 ;
1067.216302394867 ;
1110.3678028583527 ;
527.78482234478 ;
246.25277876853943 ;
120.42329430580139 ;
415.82090306282043 ;
389.0006763935089 ;
700.2748792171478 ;
640.5772838592529 ;
943.8636722564697 ;
890.3079686164856 ;
1254.9489929676056 ;
1178.943946838379 ;
1254.9489929676056 ;
670.4260815382004 ;
196.30358839035034 ;
104.7791998386383 ;
380.9032084941864 ;
334.11148023605347 ;
575.9226109981537 ;
502.9577422142029 ;
768.5037605762482 ;
715.7969036102295 ;
1177.3337934017181 ;
1091.198011636734 ;
1177.3337934017181 ;
539.4401766061783 ;
236.73001837730408 ;
116.08334612846375 ;
402.01115822792053 ;
380.99027729034424 ;
676.9055778980255 ;
604.6993010044098 ;
943.9533145427704 ;
840.7407290935516 ;
1207.989001750946 ;
1146.6869959831238 ;
1207.989001750946 ;
640.8024394512177 ;
200.66755509376526 ;
104.9403235912323 ;
380.84814953804016 ;
332.4757068157196 ;
574.2920718193054 ;
502.97831296920776 ;
770.2300152778625 ;
708.4091663360596 ;
1181.5661826133728 ;
1101.7920715808868 ;
1181.5661826133728 ;
538.6351923942566 ;
243.60661220550537 ;
116.29261112213135 ;
423.1140785217285 ;
389.2299838066101 ;
678.799489736557 ;
607.218017578125 ;
928.8609988689423 ;
839.9447247982025 ;
1200.3135433197021 ;
1132.2366256713867 ;
1200.3135433197021 ;
643.008753657341 ;
198.6277277469635 ;
103.22501420974731 ;
375.55779457092285 ;
328.55049872398376 ;
568.0923643112183 ;
498.2590284347534 ;
764.0060381889343 ;
698.3362514972687 ;
1091.9013164043427 ;
1075.5100736618042 ;
1091.9013164043427 ;
533.1756963729858 ;
245.642103433609 ;
129.85388374328613 ;
427.80011224746704 ;
405.7749214172363 ;
706.2511696815491 ;
641.2395992279053 ;
963.8439602851868 ;
888.0194735527039 ;
1260.3776669502258 ;
1189.605637550354 ;
1260.3776669502258 ;
673.7453844547272 ;
197.71666312217712 ;
102.58393597602844 ;
373.9297263622284 ;
327.1979582309723 ;
565.7451889514923 ;
495.57830786705017 ;
760.6805937290192 ;
686.5933990478516 ;
1085.8150537014008 ;
1078.7501854896545 ;
1085.8150537014008 ;
530.6617484092712 ;
232.5075478553772 ;
123.29241728782654 ;
416.760972738266 ;
381.997385263443 ;
698.8184630870819 ;
602.7538311481476 ;
934.1476793289185 ;
833.624813079834 ;
1201.9626233577728 ;
1144.9237399101257 ;
1201.9626233577728 ;
650.7861471176147 ;
198.29252338409424 ;
103.24902844429016 ;
375.09136843681335 ;
328.83560943603516 ;
567.6395926475525 ;
497.28078627586365 ;
762.4948630332947 ;
688.3391010761261 ;
1112.6902475357056 ;
1089.9927971363068 ;
1112.6902475357056 ;
532.4601894617081 ;
233.21615767478943 ;
123.37462639808655 ;
419.2561631202698 ;
384.27468943595886 ;
669.0993123054504 ;
606.5236821174622 ;
935.8975615501404 ;
836.6086277961731 ;
1188.044513463974 ;
1139.756422996521 ;
1188.044513463974 ;
637.8114972114563 ;
