Werte;
192.2069799900055 ;
104.66301035881042 ;
380.71627950668335 ;
333.80668091773987 ;
576.1721813678741 ;
505.5569648742676 ;
771.9294319152832 ;
698.0467400550842 ;
1115.1739857196808 ;
1082.805346250534 ;
1115.1739857196808 ;
540.8645731210709 ;
246.35260200500488 ;
130.5845501422882 ;
431.0014307498932 ;
409.2922148704529 ;
722.0920820236206 ;
644.8414914608002 ;
979.5965619087219 ;
887.002569437027 ;
1245.1431303024292 ;
1199.7523355484009 ;
1245.1431303024292 ;
683.4667867422104 ;
