Werte;
181.57414197921753 ;
739368 output length
182.44728350639343 ;
739368 output length
100.64591121673584 ;
409289 output length
99.88139629364014 ;
409289 output length
952.679678440094 ;
3908830 output length
1299.6177411079407 ;
3908830 output length
848.1929183006287 ;
3422375 output length
996.8422284126282 ;
3422375 output length
967.4701442718506 ;
3908830 output length
1276.657382965088 ;
3908830 output length
853.0437381267548 ;
3422375 output length
1003.2963643074036 ;
3422375 output length
>> ind-1 985.6237995624542 ;
3908830 output length
>> ind-1  1267.6486961841583 ;
3908830 output length
972.7260103225708 ;
3908830 output length
1278.103660583496 ;
3908830 output length
850.6218838691711 ;
3422375 output length
1060.3269910812378 ;
3422375 output length
960.2325212955475 ;
3908830 output length
1232.659482717514 ;
3908830 output length
844.7981534004211 ;
3422375 output length
996.0564107894897 ;
3422375 output length
